Data/Data2/erdi/erdi6-d 07-23 17.00.23.csv

#Digilent WaveForms Oscilloscope Acquisition
#Device Name: Discovery2
#Serial Number: SN:210321A35B9C
#Date Time: 2022-07-23 17:00:23.410
#Sample rate: 1600Hz
#Samples: 8000
#Trigger: Source: Channel 1 Type: Edge Condition: Rising Level: 1.47 V Hyst.: Auto HoldOff: 100 ns
#Channel 1: Range: 20 mV/div Offset: -1.5 V Attenuation: 1 X Sample Mode: Average
#Channel 2: Range: 20 mV/div Offset: -1.5 V Attenuation: 1 X Sample Mode: Average

Time (s),Channel 1 (V),Channel 2 (V)
0.7406250000000001,1.4855425157043955,1.4715981473146016
0.74125,1.4848651602601939,1.4719308185236168
0.7418750000000003,1.484187804815992,1.4729288321506628
0.7425000000000002,1.4835104493717906,1.4735941745686931
0.743125,1.4828330939275889,1.474592188195739
0.7437499999999999,1.4818170607612868,1.4759228730317993
0.7443750000000002,1.4811397053170847,1.4769208866588455
0.7450000000000001,1.480462349872883,1.477586229076876
0.745625,1.4797849944286814,1.478916913912937
0.7462500000000003,1.4791076389844797,1.479582256330968
0.7468750000000002,1.4784302835402783,1.4805802699580133
0.7475,1.4780916058181774,1.4815782835850588
0.7481249999999999,1.4780916058181774,1.4819109547940739
0.7487500000000002,1.4777529280960764,1.4822436260030893
0.7493750000000001,1.4774142503739758,1.4822436260030893
0.75,1.4777529280960766,1.4822436260030893
0.7506249999999999,1.4777529280960766,1.4819109547940743
0.7512500000000002,1.4780916058181774,1.4815782835850588
0.7518750000000001,1.4787689612623791,1.4805802699580133
0.7525,1.4794463167065806,1.4799149275399828
0.7531250000000003,1.4801236721507824,1.4789169139129366
0.7537500000000001,1.4808010275949839,1.4779189002858912
0.754375,1.4814783830391856,1.4772535578678607
0.7549999999999999,1.482155738483387,1.4762555442408154
0.7556250000000002,1.4828330939275889,1.4752575306137694
0.7562500000000001,1.4835104493717906,1.474592188195739
0.756875,1.4838491270938914,1.4735941745686931
0.7575000000000003,1.4845264825380933,1.4729288321506624
0.7581250000000002,1.4848651602601939,1.4725961609416474
0.75875,1.4848651602601939,1.472263489732632
0.7593749999999999,1.4852038379822945,1.472263489732632
0.7600000000000002,1.4848651602601939,1.4725961609416474
0.7606250000000001,1.4848651602601939,1.4729288321506626
0.76125,1.484526482538093,1.4732615033596779
0.7618750000000003,1.4838491270938912,1.4739268457777088
0.7625000000000002,1.4831717716496897,1.4749248594047542
0.763125,1.482494416205488,1.4755902018227847
0.7637499999999999,1.481478383039186,1.4765882154498298
0.7643750000000002,1.4808010275949837,1.4775862290768764
0.7650000000000001,1.4801236721507822,1.4785842427039217
0.765625,1.4794463167065806,1.4795822563309675
0.7662499999999999,1.4787689612623793,1.4805802699580128
0.7668750000000002,1.4784302835402783,1.4815782835850588
0.7675000000000001,1.4777529280960766,1.4822436260030893
0.768125,1.4774142503739758,1.4825762972121046
0.7687500000000003,1.4774142503739758,1.4829089684211199
0.7693750000000001,1.4774142503739758,1.4829089684211199
0.77,1.4777529280960766,1.4829089684211199
0.7706249999999999,1.4780916058181772,1.4825762972121048
0.7712500000000002,1.4784302835402783,1.4822436260030893
0.7718750000000001,1.4787689612623791,1.4812456123760438
0.7725,1.4794463167065806,1.4805802699580133
0.7731250000000003,1.4801236721507827,1.479582256330967
0.7737500000000002,1.4811397053170847,1.4785842427039217
0.774375,1.4818170607612864,1.4779189002858912
0.7749999999999999,1.4824944162054878,1.476920886658846
0.7756250000000002,1.4831717716496897,1.4759228730318
0.7762500000000001,1.4838491270938914,1.4749248594047542
0.776875,1.484526482538093,1.4742595169867236
0.7775000000000003,1.484865160260194,1.473594174568693
0.7781250000000002,1.4852038379822947,1.4732615033596779
0.77875,1.4855425157043955,1.4729288321506626
0.7793749999999999,1.4855425157043955,1.4729288321506626
0.7800000000000002,1.4852038379822945,1.4729288321506628
0.7806250000000001,1.4848651602601939,1.4732615033596779
0.78125,1.484526482538093,1.4735941745686931
0.7818749999999999,1.4838491270938916,1.4745921881957385
0.7825000000000002,1.4831717716496897,1.4752575306137694
0.7831250000000001,1.482494416205488,1.476255544240815
0.78375,1.4818170607612864,1.4772535578678607
0.7843750000000003,1.4811397053170843,1.478251571494907
0.7850000000000001,1.4801236721507822,1.4792495851219523
0.785625,1.4794463167065806,1.480247598748998
0.7862499999999999,1.4787689612623793,1.4809129411670283
0.7868750000000002,1.4780916058181774,1.481910954794074
0.7875000000000001,1.4777529280960766,1.4825762972121046
0.788125,1.4774142503739758,1.4832416396301351
0.7887500000000003,1.4774142503739758,1.4835743108391504
0.7893750000000002,1.4774142503739758,1.4835743108391504
0.79,1.4774142503739758,1.4835743108391504
0.7906249999999999,1.4777529280960764,1.4832416396301353
0.7912500000000002,1.4780916058181774,1.4825762972121046
0.7918750000000001,1.4787689612623791,1.481910954794074
0.7925,1.4794463167065806,1.4812456123760438
0.7931250000000003,1.4801236721507824,1.4802475987489976
0.7937500000000002,1.4808010275949839,1.4792495851219523
0.794375,1.4818170607612864,1.4782515714949065
0.7949999999999999,1.4824944162054878,1.4772535578678612
0.7956250000000002,1.48317177164969,1.4762555442408145
0.7962500000000001,1.4838491270938914,1.4752575306137694
0.796875,1.484526482538093,1.474592188195739
0.7974999999999999,1.4848651602601937,1.4742595169867239
0.7981250000000002,1.4852038379822947,1.4735941745686931
0.7987500000000001,1.4852038379822947,1.4735941745686931
0.799375,1.4855425157043955,1.4732615033596779
0.8000000000000003,1.4852038379822947,1.4735941745686933
0.8006250000000001,1.4852038379822947,1.4739268457777084
0.80125,1.484526482538093,1.4742595169867236
0.8018749999999999,1.483510449371791,1.474924859404754
0.8025000000000002,1.4828330939275889,1.4755902018227847
0.8031250000000001,1.482494416205488,1.4765882154498302
0.80375,1.4814783830391856,1.477586229076876
0.8043750000000003,1.4811397053170845,1.4785842427039222
0.8050000000000002,1.480462349872883,1.4795822563309675
0.805625,1.4797849944286814,1.4805802699580133
0.8062499999999999,1.4787689612623796,1.4815782835850584
0.8068750000000002,1.4780916058181774,1.4822436260030893
0.8075000000000001,1.4777529280960766,1.4829089684211199
0.808125,1.4774142503739758,1.4835743108391504
0.8087500000000003,1.4770755726518747,1.4835743108391504
0.8093750000000002,1.4767368949297741,1.4835743108391504
0.81,1.477075572651875,1.4835743108391504
0.8106249999999999,1.4774142503739756,1.4832416396301353
0.8112500000000002,1.4777529280960768,1.4829089684211194
0.8118750000000001,1.4784302835402783,1.481910954794074
0.8125,1.47910763898448,1.4812456123760438
0.8131249999999999,1.4797849944286812,1.4802475987489985
0.8137500000000002,1.480462349872883,1.4792495851219523
0.8143750000000001,1.4811397053170847,1.4785842427039217
0.815,1.4821557384833872,1.4772535578678607
0.8156250000000003,1.482833093927589,1.4762555442408145
0.8162500000000001,1.4835104493717906,1.4752575306137694
0.816875,1.4838491270938914,1.474592188195739
0.8174999999999999,1.4845264825380928,1.4739268457777086
0.8181250000000002,1.484526482538093,1.4735941745686931
0.8187500000000001,1.4848651602601939,1.4732615033596779
0.819375,1.4848651602601939,1.4732615033596779
0.8200000000000003,1.4848651602601937,1.4735941745686933
0.8206250000000002,1.484526482538093,1.4739268457777084
0.82125,1.4838491270938914,1.4742595169867236
0.8218749999999999,1.4835104493717908,1.475257530613769
0.8225000000000002,1.4828330939275889,1.4759228730318
0.8231250000000001,1.4821557384833872,1.4769208866588455
0.82375,1.4811397053170847,1.4779189002858912
0.8243750000000003,1.4804623498728826,1.4789169139129374
0.8250000000000002,1.4794463167065806,1.4799149275399828
0.825625,1.4787689612623791,1.4809129411670285
0.8262499999999999,1.4784302835402785,1.4819109547940736
0.8268750000000002,1.4777529280960764,1.4825762972121048
0.8275000000000001,1.4774142503739758,1.4832416396301351
0.828125,1.477075572651875,1.4835743108391504
0.8287499999999999,1.4767368949297743,1.4842396532571807
0.8293750000000002,1.4763982172076733,1.4839069820481656
0.8300000000000001,1.4763982172076733,1.4839069820481656
0.830625,1.4767368949297741,1.4835743108391504
0.8312500000000003,1.477414250373976,1.4832416396301347
0.8318750000000001,1.4777529280960766,1.4822436260030893
0.8325,1.4784302835402783,1.4815782835850588
0.8331249999999999,1.4791076389844797,1.4809129411670288
0.8337500000000002,1.4797849944286814,1.4799149275399828
0.8343750000000001,1.4808010275949839,1.478916913912937
0.835,1.4814783830391856,1.4779189002858912
0.8356250000000003,1.4821557384833874,1.47658821544983
0.8362500000000002,1.4828330939275889,1.4759228730318
0.836875,1.4831717716496897,1.4749248594047542
0.8374999999999999,1.4838491270938912,1.4742595169867239
0.8381250000000002,1.4841878048159922,1.4739268457777084
0.8387500000000001,1.4841878048159922,1.4735941745686931
0.839375,1.4841878048159922,1.4735941745686931
0.8400000000000003,1.484187804815992,1.4739268457777086
0.8406250000000002,1.4838491270938914,1.4742595169867236
0.84125,1.4835104493717906,1.474592188195739
0.8418749999999999,1.482833093927589,1.4755902018227842
0.8425000000000002,1.4821557384833868,1.4762555442408154
0.8431250000000001,1.4811397053170847,1.4772535578678607
0.84375,1.480462349872883,1.4782515714949065
0.8443749999999999,1.479446316706581,1.4792495851219518
0.8450000000000002,1.4787689612623791,1.480247598748998
0.8456250000000001,1.4780916058181774,1.4809129411670285
0.84625,1.4774142503739758,1.481910954794074
0.8468750000000003,1.476736894929774,1.48290896842112
0.8475000000000001,1.4763982172076733,1.4835743108391504
0.848125,1.4760595394855724,1.4839069820481656
0.8487499999999999,1.4757208617634718,1.4842396532571807
0.8493750000000002,1.4757208617634716,1.4842396532571809
0.8500000000000001,1.4757208617634716,1.4842396532571809
0.850625,1.4760595394855724,1.4839069820481656
0.8512500000000003,1.4763982172076735,1.48357431083915
0.8518750000000002,1.477075572651875,1.4825762972121046
0.8525,1.4777529280960766,1.481910954794074
0.8531249999999999,1.478430283540278,1.480912941167029
0.8537500000000002,1.47910763898448,1.4799149275399828
0.8543750000000001,1.4797849944286814,1.478916913912937
0.855,1.480462349872883,1.4779189002858912
0.8556250000000003,1.4814783830391858,1.476920886658845
0.8562500000000002,1.4818170607612864,1.4759228730318
0.856875,1.482494416205488,1.4752575306137694
0.8574999999999999,1.4831717716496895,1.4745921881957391
0.8581250000000002,1.4835104493717906,1.4742595169867234
0.8587500000000001,1.4835104493717906,1.4739268457777084
0.859375,1.4835104493717906,1.4735941745686931
0.8599999999999999,1.4835104493717906,1.4739268457777082
0.8606250000000002,1.4831717716496897,1.4742595169867236
0.8612500000000001,1.482494416205488,1.474592188195739
0.861875,1.4821557384833872,1.4752575306137694
0.8625000000000003,1.4814783830391853,1.4762555442408152
0.8631250000000001,1.4808010275949839,1.4769208866588455
0.86375,1.4801236721507822,1.4779189002858912
0.8643749999999999,1.4791076389844804,1.4789169139129366
0.8650000000000002,1.4784302835402783,1.4795822563309675
0.8656250000000001,1.4777529280960766,1.4805802699580133
0.86625,1.477075572651875,1.4815782835850588
0.8668750000000003,1.476398217207673,1.4822436260030896
0.8675000000000002,1.4760595394855724,1.4829089684211199
0.868125,1.4757208617634716,1.4835743108391504
0.8687499999999999,1.475382184041371,1.4839069820481654
0.8693750000000002,1.4753821840413708,1.4839069820481656
0.8700000000000001,1.4753821840413708,1.4839069820481656
0.870625,1.4757208617634716,1.4835743108391504
0.8712500000000003,1.4763982172076735,1.483241639630135
0.8718750000000002,1.477075572651875,1.4825762972121046
0.8725,1.4774142503739758,1.481910954794074
0.8731249999999999,1.4780916058181772,1.480912941167029
0.8737500000000002,1.4791076389844802,1.4799149275399823
0.8743750000000001,1.4797849944286814,1.478916913912937
0.875,1.480462349872883,1.4779189002858912
0.8756249999999999,1.481478383039185,1.476920886658846
0.8762500000000002,1.4821557384833872,1.476255544240815
0.8768750000000001,1.482494416205488,1.4752575306137694
0.8775,1.4828330939275889,1.474592188195739
0.8781250000000003,1.4835104493717908,1.4742595169867234
0.8787500000000001,1.4838491270938914,1.4739268457777084
0.879375,1.4838491270938914,1.4739268457777084
0.8799999999999999,1.4835104493717908,1.4739268457777084
0.8806250000000002,1.4831717716496897,1.4742595169867236
0.8812500000000001,1.482494416205488,1.4749248594047542
0.881875,1.4821557384833872,1.4755902018227847
0.8825000000000003,1.4811397053170845,1.4762555442408152
0.8831250000000002,1.480462349872883,1.4769208866588455
0.88375,1.4794463167065806,1.4782515714949065
0.8843749999999999,1.4787689612623793,1.4792495851219518
0.8850000000000002,1.4780916058181774,1.480247598748998
0.8856250000000001,1.4774142503739758,1.4812456123760438
0.88625,1.4767368949297741,1.4822436260030893
0.8868750000000003,1.4760595394855722,1.4829089684211203
0.8875000000000002,1.4757208617634716,1.4839069820481656
0.888125,1.4753821840413708,1.4842396532571809
0.8887499999999999,1.4750435063192702,1.484572324466196
0.8893750000000002,1.4750435063192702,1.4845723244661961
0.8900000000000001,1.4753821840413708,1.4845723244661961
0.890625,1.4753821840413708,1.4842396532571809
0.8912499999999999,1.4760595394855722,1.4839069820481658
0.8918750000000002,1.4763982172076733,1.4829089684211199
0.8925000000000001,1.477075572651875,1.4822436260030893
0.893125,1.4777529280960766,1.4812456123760438
0.8937500000000003,1.4784302835402785,1.4802475987489976
0.8943750000000001,1.47910763898448,1.4792495851219523
0.895,1.4801236721507822,1.4782515714949065
0.8956249999999999,1.4808010275949837,1.4772535578678612
0.8962500000000002,1.4811397053170847,1.4765882154498302
0.8968750000000001,1.4818170607612864,1.4755902018227847
0.8975,1.482494416205488,1.4749248594047542
0.8981250000000003,1.4828330939275889,1.4745921881957387
0.8987500000000002,1.4828330939275889,1.4742595169867236
0.899375,1.4828330939275889,1.4739268457777084
0.8999999999999999,1.4824944162054883,1.4742595169867234
0.9006250000000002,1.4821557384833872,1.4742595169867236
0.9012500000000001,1.4821557384833872,1.4749248594047542
0.901875,1.4814783830391856,1.4755902018227847
0.9025000000000003,1.4808010275949834,1.4762555442408152
0.9031250000000002,1.4797849944286814,1.4769208866588455
0.90375,1.4787689612623791,1.4779189002858912
0.9043749999999999,1.4784302835402785,1.4789169139129366
0.9050000000000002,1.4777529280960764,1.4799149275399832
0.9056250000000001,1.477075572651875,1.4809129411670285
0.90625,1.4763982172076733,1.481910954794074
0.9068749999999999,1.4757208617634718,1.4829089684211194
0.9075000000000002,1.4753821840413708,1.4835743108391504
0.9081250000000001,1.47504350631927,1.4839069820481656
0.90875,1.47504350631927,1.4842396532571809
0.9093750000000003,1.47504350631927,1.4842396532571809
0.9100000000000001,1.47504350631927,1.4842396532571809
0.910625,1.4753821840413708,1.4835743108391504
0.9112499999999999,1.4757208617634714,1.4832416396301353
0.9118750000000002,1.4763982172076733,1.4825762972121046
0.9125000000000001,1.477075572651875,1.4815782835850588
0.913125,1.4777529280960766,1.4805802699580133
0.9137500000000003,1.4787689612623793,1.479914927539982
0.9143750000000002,1.4794463167065806,1.4785842427039217
0.915,1.4801236721507822,1.4779189002858912
0.9156249999999999,1.4808010275949837,1.476920886658846
0.9162500000000002,1.4814783830391856,1.4759228730318
0.9168750000000001,1.4818170607612864,1.4752575306137694
0.9175,1.482494416205488,1.474592188195739
0.9181250000000003,1.4828330939275889,1.4742595169867234
0.9187500000000002,1.4828330939275889,1.4739268457777084
0.919375,1.4828330939275889,1.4739268457777084
0.9199999999999999,1.4828330939275889,1.4739268457777084
0.9206250000000002,1.4828330939275887,1.4745921881957391
0.9212500000000001,1.4821557384833872,1.4749248594047542
0.921875,1.4818170607612864,1.4755902018227847
0.9224999999999999,1.481139705317085,1.4765882154498298
0.9231250000000002,1.480462349872883,1.4772535578678607
0.9237500000000001,1.4794463167065806,1.4782515714949065
0.924375,1.4787689612623791,1.4792495851219523
0.9250000000000003,1.4784302835402778,1.4802475987489985
0.9256250000000001,1.4774142503739758,1.4812456123760438
0.92625,1.477075572651875,1.481910954794074
0.9268749999999999,1.4763982172076735,1.4829089684211194
0.9275000000000002,1.4760595394855724,1.4835743108391504
0.9281250000000001,1.4757208617634716,1.4839069820481656
0.92875,1.4757208617634716,1.4842396532571809
0.9293750000000003,1.475382184041371,1.4842396532571807
0.9300000000000002,1.4757208617634716,1.4839069820481656
0.930625,1.4760595394855724,1.4839069820481656
0.9312499999999999,1.476398217207673,1.4832416396301353
0.9318750000000002,1.477075572651875,1.4825762972121046
0.9325000000000001,1.4777529280960766,1.4815782835850588
0.933125,1.4784302835402783,1.4805802699580133
0.9337500000000003,1.4791076389844802,1.479582256330967
0.9343750000000002,1.4797849944286814,1.4785842427039217
0.935,1.4808010275949839,1.477586229076876
0.9356249999999999,1.4811397053170845,1.4765882154498307
0.9362500000000002,1.4818170607612866,1.4755902018227842
0.9368750000000001,1.482494416205488,1.474592188195739
0.9375,1.4828330939275889,1.4739268457777084
0.9381249999999999,1.4831717716496895,1.4735941745686933
0.9387500000000002,1.4835104493717906,1.4732615033596779
0.9393750000000001,1.4835104493717906,1.4732615033596779
0.94,1.4831717716496897,1.4735941745686931
0.9406250000000003,1.4828330939275887,1.4739268457777086
0.9412500000000001,1.482494416205488,1.4742595169867236
0.941875,1.4821557384833872,1.4749248594047542
0.9424999999999999,1.4814783830391858,1.4759228730317995
0.9431250000000002,1.4808010275949839,1.4765882154498302
0.9437500000000001,1.4801236721507822,1.477586229076876
0.944375,1.47910763898448,1.4785842427039217
0.9450000000000003,1.478430283540278,1.4795822563309677
0.9456250000000002,1.4777529280960766,1.480247598748998
0.94625,1.477075572651875,1.4812456123760438
0.9468749999999999,1.4767368949297743,1.4819109547940739
0.9475000000000002,1.4763982172076733,1.4825762972121046
0.9481250000000001,1.4760595394855724,1.4829089684211199
0.94875,1.4753821840413708,1.4835743108391504
0.9493750000000003,1.475382184041371,1.4835743108391501
0.9500000000000002,1.4757208617634716,1.4832416396301351
0.950625,1.4760595394855724,1.4829089684211199
0.9512499999999999,1.476398217207673,1.4825762972121048
0.9518750000000002,1.477414250373976,1.4819109547940739
0.9525000000000001,1.4777529280960766,1.4812456123760438
0.953125,1.4787689612623791,1.480247598748998
0.9537499999999999,1.4794463167065803,1.4795822563309677
0.9543750000000002,1.4801236721507822,1.4785842427039217
0.9550000000000001,1.4808010275949839,1.477586229076876
0.955625,1.4818170607612864,1.4765882154498302
0.9562500000000003,1.4821557384833874,1.4755902018227844
0.9568750000000001,1.4828330939275889,1.4749248594047542
0.9575,1.4835104493717906,1.4742595169867236
0.9581249999999999,1.484187804815992,1.4739268457777086
0.9587500000000002,1.4841878048159922,1.4735941745686931
0.9593750000000001,1.4841878048159922,1.4732615033596779
0.96,1.4841878048159922,1.4735941745686931
0.9606250000000003,1.4838491270938912,1.4739268457777086
0.9612500000000002,1.4835104493717906,1.4742595169867236
0.961875,1.4828330939275889,1.4752575306137694
0.9624999999999999,1.4821557384833874,1.4759228730317997
0.9631250000000002,1.4814783830391856,1.4769208866588455
0.9637500000000001,1.4808010275949839,1.4779189002858912
0.964375,1.4801236721507822,1.478916913912937
0.9650000000000003,1.4791076389844797,1.479582256330968
0.9656250000000002,1.4784302835402783,1.4805802699580133
0.96625,1.4780916058181774,1.4815782835850588
0.9668749999999999,1.477414250373976,1.4822436260030891
0.9675000000000002,1.4770755726518747,1.48290896842112
