Data/datamerve/merve3-e 07-23 16.35.49.csv

#Digilent WaveForms Oscilloscope Acquisition
#Device Name: Discovery2
#Serial Number: SN:210321A35B9C
#Date Time: 2022-07-23 16:35:49.501
#Sample rate: 1600Hz
#Samples: 8000
#Trigger: Source: Channel 1 Type: Edge Condition: Rising Level: 1.47 V Hyst.: Auto HoldOff: 100 ns
#Channel 1: Range: 20 mV/div Offset: -1.5 V Attenuation: 1 X Sample Mode: Average
#Channel 2: Range: 20 mV/div Offset: -1.5 V Attenuation: 1 X Sample Mode: Average

Time (s),Channel 1 (V),Channel 2 (V)
0.7406250000000001,1.505524501308344,1.4795822563309675
0.74125,1.5051858235862432,1.4795822563309675
0.7418750000000003,1.505185823586243,1.4792495851219523
0.7425000000000002,1.5048471458641424,1.4792495851219523
0.743125,1.5045084681420415,1.4792495851219523
0.7437499999999999,1.5045084681420415,1.4789169139129372
0.7443750000000002,1.5045084681420415,1.478916913912937
0.7450000000000001,1.5041697904199407,1.4785842427039217
0.745625,1.5041697904199407,1.4782515714949065
0.7462500000000003,1.5041697904199407,1.4775862290768758
0.7468750000000002,1.5041697904199407,1.4772535578678607
0.7475,1.5045084681420415,1.4769208866588455
0.7481249999999999,1.5045084681420415,1.4765882154498304
0.7487500000000002,1.5045084681420418,1.4762555442408147
0.7493750000000001,1.5048471458641424,1.4759228730318
0.75,1.5048471458641424,1.4755902018227847
0.7506249999999999,1.505185823586243,1.4755902018227847
0.7512500000000002,1.505524501308344,1.4755902018227847
0.7518750000000001,1.505524501308344,1.4755902018227847
0.7525,1.5058631790304449,1.4755902018227847
0.7531250000000003,1.5058631790304446,1.4759228730318
0.7537500000000001,1.505524501308344,1.4759228730318
0.754375,1.505524501308344,1.476255544240815
0.7549999999999999,1.5058631790304446,1.47658821544983
0.7556250000000002,1.5058631790304449,1.4769208866588455
0.7562500000000001,1.5058631790304449,1.4772535578678607
0.756875,1.5058631790304449,1.477586229076876
0.7575000000000003,1.5058631790304449,1.4779189002858915
0.7581250000000002,1.5058631790304449,1.4782515714949065
0.75875,1.5058631790304449,1.4785842427039217
0.7593749999999999,1.5058631790304449,1.4789169139129368
0.7600000000000002,1.5058631790304449,1.4792495851219523
0.7606250000000001,1.505524501308344,1.4792495851219523
0.76125,1.505524501308344,1.4792495851219523
0.7618750000000003,1.505524501308344,1.4792495851219525
0.7625000000000002,1.505524501308344,1.4795822563309675
0.763125,1.505524501308344,1.4795822563309675
0.7637499999999999,1.505524501308344,1.4792495851219525
0.7643750000000002,1.5058631790304446,1.479249585121952
0.7650000000000001,1.505524501308344,1.478916913912937
0.765625,1.5058631790304449,1.4785842427039217
0.7662499999999999,1.5058631790304449,1.4782515714949067
0.7668750000000002,1.5062018567525457,1.4779189002858912
0.7675000000000001,1.5062018567525457,1.477586229076876
0.768125,1.5062018567525457,1.4772535578678607
0.7687500000000003,1.5062018567525457,1.4769208866588452
0.7693750000000001,1.5062018567525457,1.4765882154498302
0.77,1.5062018567525457,1.476255544240815
0.7706249999999999,1.5062018567525457,1.476255544240815
0.7712500000000002,1.5065405344746465,1.476255544240815
0.7718750000000001,1.5065405344746465,1.476255544240815
0.7725,1.5065405344746465,1.476255544240815
0.7731250000000003,1.5065405344746465,1.476255544240815
0.7737500000000002,1.5065405344746465,1.476255544240815
0.774375,1.5065405344746465,1.4765882154498302
0.7749999999999999,1.506201856752546,1.4765882154498302
0.7756250000000002,1.5062018567525457,1.4769208866588455
0.7762500000000001,1.5058631790304449,1.477586229076876
0.776875,1.5058631790304449,1.4779189002858912
0.7775000000000003,1.505524501308344,1.4782515714949067
0.7781250000000002,1.505524501308344,1.4785842427039217
0.77875,1.505524501308344,1.478916913912937
0.7793749999999999,1.5051858235862434,1.479249585121952
0.7800000000000002,1.5048471458641421,1.4792495851219523
0.7806250000000001,1.5045084681420415,1.4792495851219523
0.78125,1.5045084681420415,1.4795822563309675
0.7818749999999999,1.5045084681420415,1.4795822563309675
0.7825000000000002,1.5045084681420415,1.4792495851219523
0.7831250000000001,1.5041697904199407,1.4792495851219523
0.78375,1.5041697904199407,1.4792495851219523
0.7843750000000003,1.50383111269784,1.4789169139129368
0.7850000000000001,1.50383111269784,1.4785842427039217
0.785625,1.50383111269784,1.4782515714949065
0.7862499999999999,1.50383111269784,1.4779189002858915
0.7868750000000002,1.5041697904199407,1.477586229076876
0.7875000000000001,1.5041697904199407,1.477586229076876
0.788125,1.5045084681420415,1.4769208866588455
0.7887500000000003,1.5045084681420415,1.4769208866588452
0.7893750000000002,1.5045084681420415,1.476255544240815
0.79,1.5045084681420415,1.476255544240815
0.7906249999999999,1.5048471458641421,1.4759228730318001
0.7912500000000002,1.5048471458641424,1.4759228730318
0.7918750000000001,1.5048471458641424,1.4759228730318
0.7925,1.5051858235862432,1.4759228730318
0.7931250000000003,1.505524501308344,1.4762555442408152
0.7937500000000002,1.505524501308344,1.4765882154498302
0.794375,1.5058631790304449,1.4769208866588455
0.7949999999999999,1.5058631790304449,1.4772535578678605
0.7956250000000002,1.5055245013083438,1.4775862290768762
0.7962500000000001,1.5051858235862432,1.4779189002858912
0.796875,1.5051858235862432,1.4782515714949065
0.7974999999999999,1.5051858235862432,1.4785842427039215
0.7981250000000002,1.505524501308344,1.478916913912937
0.7987500000000001,1.505524501308344,1.4792495851219523
0.799375,1.505524501308344,1.4795822563309675
0.8000000000000003,1.5055245013083438,1.4795822563309677
0.8006250000000001,1.5051858235862432,1.4799149275399828
0.80125,1.5048471458641424,1.4799149275399828
0.8018749999999999,1.5048471458641424,1.4799149275399828
0.8025000000000002,1.5048471458641424,1.4799149275399828
0.8031250000000001,1.5048471458641424,1.4799149275399828
0.80375,1.5048471458641424,1.4799149275399828
0.8043750000000003,1.5048471458641424,1.4799149275399825
0.8050000000000002,1.5048471458641424,1.4795822563309675
0.805625,1.5048471458641424,1.4795822563309675
0.8062499999999999,1.5048471458641424,1.4792495851219525
0.8068750000000002,1.5048471458641424,1.478916913912937
0.8075000000000001,1.5051858235862432,1.4785842427039217
0.808125,1.5051858235862432,1.4782515714949065
0.8087500000000003,1.505524501308344,1.477918900285891
0.8093750000000002,1.505524501308344,1.477586229076876
0.81,1.505524501308344,1.477586229076876
0.8106249999999999,1.505524501308344,1.477253557867861
0.8112500000000002,1.5051858235862434,1.4769208866588455
0.8118750000000001,1.505524501308344,1.4769208866588455
0.8125,1.505524501308344,1.4769208866588455
0.8131249999999999,1.505524501308344,1.4769208866588455
0.8137500000000002,1.5051858235862432,1.4772535578678607
0.8143750000000001,1.5051858235862432,1.477586229076876
0.815,1.5051858235862432,1.477586229076876
0.8156250000000003,1.5051858235862432,1.4779189002858915
0.8162500000000001,1.5051858235862432,1.4785842427039217
0.816875,1.5051858235862432,1.478916913912937
0.8174999999999999,1.5051858235862432,1.479249585121952
0.8181250000000002,1.5051858235862432,1.4799149275399828
0.8187500000000001,1.5048471458641424,1.4799149275399828
0.819375,1.5048471458641424,1.480247598748998
0.8200000000000003,1.5048471458641424,1.4805802699580135
0.8206250000000002,1.5048471458641424,1.4809129411670285
0.82125,1.5045084681420415,1.4809129411670285
0.8218749999999999,1.5045084681420415,1.4809129411670285
0.8225000000000002,1.5045084681420415,1.4809129411670285
0.8231250000000001,1.5045084681420415,1.4809129411670285
0.82375,1.5041697904199407,1.4809129411670285
0.8243750000000003,1.5041697904199407,1.480580269958013
0.8250000000000002,1.5041697904199407,1.480247598748998
0.825625,1.5045084681420415,1.4799149275399828
0.8262499999999999,1.5045084681420415,1.4795822563309677
0.8268750000000002,1.5045084681420415,1.479249585121952
0.8275000000000001,1.5045084681420415,1.478916913912937
0.828125,1.5045084681420415,1.4785842427039217
0.8287499999999999,1.5045084681420415,1.4782515714949067
0.8293750000000002,1.5045084681420415,1.477586229076876
0.8300000000000001,1.5048471458641424,1.477586229076876
0.830625,1.5048471458641424,1.4772535578678607
0.8312500000000003,1.5048471458641421,1.4772535578678605
0.8318750000000001,1.5045084681420415,1.4769208866588455
0.8325,1.5045084681420415,1.4769208866588455
0.8331249999999999,1.504169790419941,1.4769208866588455
0.8337500000000002,1.5041697904199407,1.4769208866588455
0.8343750000000001,1.5041697904199407,1.4772535578678607
0.835,1.5045084681420415,1.477586229076876
0.8356250000000003,1.5045084681420413,1.4779189002858915
0.8362500000000002,1.5041697904199407,1.4782515714949065
0.836875,1.5041697904199407,1.4785842427039217
0.8374999999999999,1.5038311126978403,1.4789169139129368
0.8381250000000002,1.50383111269784,1.4792495851219523
0.8387500000000001,1.5034924349757393,1.4795822563309675
0.839375,1.5034924349757393,1.4799149275399828
0.8400000000000003,1.5031537572536384,1.480247598748998
0.8406250000000002,1.5031537572536384,1.480247598748998
0.84125,1.5031537572536384,1.480247598748998
0.8418749999999999,1.503492434975739,1.480247598748998
0.8425000000000002,1.5031537572536384,1.480247598748998
0.8431250000000001,1.5031537572536384,1.480247598748998
0.84375,1.5031537572536384,1.4799149275399828
0.8443749999999999,1.5031537572536384,1.4799149275399828
0.8450000000000002,1.5031537572536384,1.4795822563309675
0.8456250000000001,1.5034924349757393,1.4792495851219523
0.84625,1.5034924349757393,1.478916913912937
0.8468750000000003,1.5034924349757393,1.4785842427039217
0.8475000000000001,1.5034924349757393,1.4785842427039217
0.848125,1.50383111269784,1.4782515714949065
0.8487499999999999,1.50383111269784,1.4779189002858915
0.8493750000000002,1.5041697904199407,1.477586229076876
0.8500000000000001,1.5041697904199407,1.477586229076876
0.850625,1.5045084681420415,1.4772535578678607
0.8512500000000003,1.504169790419941,1.4772535578678607
0.8518750000000002,1.5045084681420415,1.4772535578678607
0.8525,1.5045084681420415,1.4769208866588455
0.8531249999999999,1.504169790419941,1.4769208866588455
0.8537500000000002,1.5041697904199407,1.4772535578678607
0.8543750000000001,1.5045084681420415,1.4772535578678607
0.855,1.5041697904199407,1.477586229076876
0.8556250000000003,1.5041697904199407,1.4779189002858915
0.8562500000000002,1.5041697904199407,1.4782515714949065
0.856875,1.50383111269784,1.4785842427039217
0.8574999999999999,1.50383111269784,1.479249585121952
0.8581250000000002,1.5034924349757393,1.4795822563309677
0.8587500000000001,1.5034924349757393,1.4799149275399828
0.859375,1.5034924349757393,1.480247598748998
0.8599999999999999,1.5034924349757393,1.480580269958013
0.8606250000000002,1.5031537572536384,1.4805802699580133
0.8612500000000001,1.5031537572536384,1.4809129411670285
0.861875,1.5028150795315376,1.4809129411670285
0.8625000000000003,1.5028150795315374,1.4809129411670285
0.8631250000000001,1.5024764018094368,1.4809129411670285
0.86375,1.5024764018094368,1.4805802699580133
0.8643749999999999,1.5024764018094368,1.4805802699580133
0.8650000000000002,1.5024764018094368,1.480247598748998
0.8656250000000001,1.5024764018094368,1.480247598748998
0.86625,1.5028150795315376,1.4795822563309675
0.8668750000000003,1.5028150795315376,1.4792495851219523
0.8675000000000002,1.5028150795315376,1.4792495851219523
0.868125,1.5031537572536384,1.478916913912937
0.8687499999999999,1.5028150795315378,1.478584242703922
0.8693750000000002,1.5031537572536384,1.4782515714949065
0.8700000000000001,1.5031537572536384,1.4779189002858912
0.870625,1.5031537572536384,1.477586229076876
0.8712500000000003,1.5028150795315376,1.4775862290768758
0.8718750000000002,1.5028150795315376,1.4772535578678607
0.8725,1.5024764018094368,1.4772535578678607
0.8731249999999999,1.5028150795315374,1.4772535578678607
0.8737500000000002,1.5031537572536386,1.4779189002858915
0.8743750000000001,1.5034924349757393,1.4782515714949065
0.875,1.5034924349757393,1.478916913912937
0.8756249999999999,1.5034924349757393,1.478916913912937
0.8762500000000002,1.5031537572536384,1.4792495851219523
0.8768750000000001,1.5031537572536384,1.4799149275399828
0.8775,1.5031537572536384,1.480247598748998
0.8781250000000003,1.5031537572536382,1.4805802699580133
0.8787500000000001,1.5028150795315376,1.4805802699580133
0.879375,1.5028150795315376,1.4809129411670285
0.8799999999999999,1.5028150795315376,1.4812456123760436
0.8806250000000002,1.5028150795315376,1.4815782835850588
0.8812500000000001,1.5024764018094368,1.4815782835850588
0.881875,1.502137724087336,1.4815782835850588
0.8825000000000003,1.502137724087336,1.4815782835850588
0.8831250000000002,1.502137724087336,1.4815782835850588
0.88375,1.502137724087336,1.4815782835850588
0.8843749999999999,1.502137724087336,1.481245612376044
0.8850000000000002,1.502137724087336,1.4812456123760438
0.8856250000000001,1.502137724087336,1.4809129411670285
0.88625,1.502137724087336,1.4805802699580133
0.8868750000000003,1.5021377240873361,1.480247598748998
0.8875000000000002,1.5024764018094368,1.480247598748998
0.888125,1.5028150795315376,1.4799149275399828
0.8887499999999999,1.5028150795315376,1.4795822563309677
0.8893750000000002,1.5028150795315378,1.4792495851219523
0.8900000000000001,1.5031537572536384,1.4792495851219523
0.890625,1.5031537572536384,1.478916913912937
0.8912499999999999,1.5031537572536384,1.478916913912937
0.8918750000000002,1.5034924349757393,1.478916913912937
0.8925000000000001,1.5034924349757393,1.4785842427039217
0.893125,1.50383111269784,1.478916913912937
0.8937500000000003,1.50383111269784,1.4789169139129372
0.8943750000000001,1.50383111269784,1.4792495851219523
0.895,1.50383111269784,1.4792495851219523
0.8956249999999999,1.50383111269784,1.4799149275399825
0.8962500000000002,1.50383111269784,1.480247598748998
0.8968750000000001,1.5034924349757393,1.480247598748998
0.8975,1.5034924349757393,1.4805802699580133
0.8981250000000003,1.5031537572536382,1.4809129411670288
0.8987500000000002,1.5028150795315376,1.4812456123760438
0.899375,1.5028150795315376,1.4815782835850588
0.8999999999999999,1.502476401809437,1.4815782835850588
0.9006250000000002,1.5024764018094368,1.481910954794074
0.9012500000000001,1.502137724087336,1.481910954794074
0.901875,1.501799046365235,1.4815782835850588
0.9025000000000003,1.5017990463652349,1.4815782835850588
0.9031250000000002,1.5014603686431343,1.4815782835850588
0.90375,1.5014603686431343,1.4812456123760438
0.9043749999999999,1.5011216909210336,1.4809129411670288
0.9050000000000002,1.5014603686431343,1.480580269958013
0.9056250000000001,1.5014603686431343,1.480247598748998
0.90625,1.5014603686431343,1.4799149275399828
0.9068749999999999,1.5014603686431343,1.4795822563309677
0.9075000000000002,1.5011216909210334,1.4792495851219523
0.9081250000000001,1.5011216909210334,1.478916913912937
0.90875,1.5011216909210334,1.4785842427039217
0.9093750000000003,1.5011216909210336,1.4785842427039215
0.9100000000000001,1.5014603686431343,1.4782515714949065
0.910625,1.457432264770027,1.4795822563309675
0.9112499999999999,1.457432264770027,1.4795822563309675
0.9118750000000002,1.457432264770027,1.4795822563309675
0.9125000000000001,1.457432264770027,1.4799149275399828
0.913125,1.457432264770027,1.4799149275399828
0.9137500000000003,1.4570935870479262,1.4802475987489983
0.9143750000000002,1.4570935870479262,1.4805802699580133
0.915,1.4567549093258254,1.4809129411670285
0.9156249999999999,1.4567549093258254,1.4812456123760436
0.9162500000000002,1.4564162316037246,1.4815782835850588
0.9168750000000001,1.4564162316037246,1.481910954794074
0.9175,1.4560775538816237,1.4822436260030893
0.9181250000000003,1.4560775538816235,1.4825762972121046
0.9187500000000002,1.455738876159523,1.4825762972121046
0.919375,1.455738876159523,1.4825762972121046
0.9199999999999999,1.4554001984374223,1.4825762972121046
0.9206250000000002,1.4554001984374219,1.4825762972121046
0.9212500000000001,1.4550615207153212,1.4825762972121046
0.921875,1.4550615207153212,1.4822436260030893
0.9224999999999999,1.4550615207153212,1.4819109547940743
0.9231250000000002,1.4550615207153212,1.481910954794074
0.9237500000000001,1.4550615207153212,1.4815782835850588
0.924375,1.4547228429932204,1.4812456123760438
0.9250000000000003,1.4547228429932204,1.480580269958013
0.9256250000000001,1.4547228429932204,1.480247598748998
0.92625,1.4547228429932204,1.4799149275399828
0.9268749999999999,1.4547228429932204,1.4795822563309677
0.9275000000000002,1.4547228429932204,1.478916913912937
0.9281250000000001,1.4550615207153212,1.478916913912937
0.92875,1.455400198437422,1.4785842427039217
0.9293750000000003,1.4557388761595231,1.4785842427039217
0.9300000000000002,1.4560775538816237,1.4785842427039217
0.930625,1.4560775538816237,1.4785842427039217
0.9312499999999999,1.4560775538816237,1.4785842427039217
0.9318750000000002,1.4560775538816237,1.4785842427039217
0.9325000000000001,1.4560775538816237,1.4785842427039217
0.933125,1.4560775538816237,1.478916913912937
0.9337500000000003,1.4560775538816235,1.4792495851219525
0.9343750000000002,1.455738876159523,1.4795822563309675
0.935,1.455738876159523,1.480247598748998
0.9356249999999999,1.4554001984374223,1.480580269958013
0.9362500000000002,1.455400198437422,1.4809129411670288
0.9368750000000001,1.455400198437422,1.4812456123760438
0.9375,1.455400198437422,1.4815782835850588
0.9381249999999999,1.455400198437422,1.4819109547940739
0.9387500000000002,1.455400198437422,1.481910954794074
0.9393750000000001,1.455400198437422,1.481910954794074
0.94,1.4550615207153212,1.481910954794074
0.9406250000000003,1.455061520715321,1.481910954794074
0.9412500000000001,1.4547228429932204,1.481910954794074
0.941875,1.4547228429932204,1.4815782835850588
0.9424999999999999,1.4547228429932204,1.4815782835850588
0.9431250000000002,1.4543841652711198,1.4812456123760438
0.9437500000000001,1.4543841652711198,1.4809129411670285
0.944375,1.4543841652711198,1.4805802699580133
0.9450000000000003,1.4547228429932204,1.4802475987489978
0.9456250000000002,1.4547228429932204,1.4799149275399828
0.94625,1.4547228429932204,1.4795822563309675
0.9468749999999999,1.455061520715321,1.4792495851219525
0.9475000000000002,1.455400198437422,1.478916913912937
0.9481250000000001,1.455400198437422,1.478916913912937
0.94875,1.455738876159523,1.4785842427039217
0.9493750000000003,1.455738876159523,1.4785842427039217
0.9500000000000002,1.455738876159523,1.4785842427039217
0.950625,1.4560775538816237,1.4785842427039217
0.9512499999999999,1.4560775538816237,1.4785842427039217
0.9518750000000002,1.4560775538816237,1.4785842427039217
0.9525000000000001,1.4560775538816237,1.4785842427039217
0.953125,1.4560775538816237,1.478916913912937
0.9537499999999999,1.4560775538816237,1.479249585121952
0.9543750000000002,1.4560775538816237,1.4795822563309675
0.9550000000000001,1.4560775538816237,1.4799149275399828
0.955625,1.455738876159523,1.480247598748998
0.9562500000000003,1.4560775538816235,1.4805802699580135
0.9568750000000001,1.455738876159523,1.4809129411670285
0.9575,1.455738876159523,1.4812456123760438
0.9581249999999999,1.4554001984374223,1.4812456123760438
0.9587500000000002,1.455400198437422,1.4815782835850588
0.9593750000000001,1.4550615207153212,1.4815782835850588
0.96,1.4550615207153212,1.4815782835850588
0.9606250000000003,1.455061520715321,1.4815782835850586
0.9612500000000002,1.4547228429932204,1.4812456123760438
0.961875,1.4547228429932204,1.4812456123760438
0.9624999999999999,1.4547228429932204,1.4809129411670288
0.9631250000000002,1.4547228429932204,1.4805802699580133
0.9637500000000001,1.4547228429932204,1.4805802699580133
0.964375,1.4550615207153212,1.480247598748998
0.9650000000000003,1.4550615207153215,1.4799149275399828
0.9656250000000002,1.455400198437422,1.4799149275399828
0.96625,1.455400198437422,1.4792495851219523
0.9668749999999999,1.455400198437422,1.4792495851219523
0.9675000000000002,1.455738876159523,1.4789169139129368
0.9681250000000001,1.455738876159523,1.4785842427039217
0.96875,1.455738876159523,1.4782515714949065
