Data/Data2/oguz/oguz-g MM-dd hh.mm.ss].315.csv

#Digilent WaveForms Oscilloscope Acquisition
#Device Name: Discovery2
#Serial Number: SN:210321A35B9C
#Date Time: 2022-05-23 14:57:57.780
#Sample rate: 4000Hz
#Samples: 8000
#Trigger: Source: Channel 1 Type: Edge Condition: Rising Level: 1.47789 V Hyst.: Auto HoldOff: 100 ns
#Channel 1: Range: 20 mV/div Offset: -1.48 V Attenuation: 1 X Sample Mode: Average
#Channel 2: Range: 20 mV/div Offset: -1.48 V Attenuation: 1 X Sample Mode: Average

Time (s),Channel 1 (V),Channel 2 (V)
-0.6819999999999999,1.479018406022745,1.4784677920588032
-0.6817500000000001,1.479018406022745,1.4784677920588032
-0.6815,1.4793570837448458,1.4788004632678184
-0.6812499999999999,1.4793570837448458,1.4788004632678184
-0.681,1.4793570837448458,1.4788004632678184
-0.68075,1.4796957614669466,1.4788004632678184
-0.6805000000000001,1.4796957614669466,1.4791331344768335
-0.68025,1.4800344391890472,1.4791331344768337
-0.6799999999999999,1.4800344391890474,1.4791331344768337
-0.6797500000000001,1.4800344391890474,1.4794658056858487
-0.6795,1.4803731169111483,1.479465805685849
-0.6792499999999999,1.480711794633249,1.479465805685849
-0.679,1.480711794633249,1.479465805685849
-0.67875,1.480711794633249,1.479465805685849
-0.6785000000000001,1.4810504723553497,1.479465805685849
-0.67825,1.4807117946332493,1.479465805685849
-0.6779999999999999,1.48105047235535,1.479465805685849
-0.6777500000000001,1.4813891500774505,1.479798476894864
-0.6775,1.4813891500774508,1.4797984768948642
-0.6772499999999999,1.4813891500774508,1.4797984768948642
-0.677,1.4813891500774508,1.4794658056858492
-0.67675,1.4813891500774508,1.479465805685849
-0.6765000000000001,1.4817278277995514,1.479465805685849
-0.67625,1.4817278277995516,1.479465805685849
-0.6759999999999999,1.4820665055216524,1.479465805685849
-0.6757500000000001,1.4820665055216524,1.479465805685849
-0.6755,1.4820665055216524,1.479465805685849
-0.6752499999999999,1.4820665055216524,1.479465805685849
-0.675,1.4820665055216524,1.479465805685849
-0.67475,1.4820665055216524,1.4791331344768337
-0.6745000000000001,1.4820665055216524,1.4791331344768337
-0.67425,1.4820665055216524,1.4788004632678187
-0.6739999999999999,1.4824051832437533,1.4788004632678184
-0.6737500000000001,1.4820665055216526,1.4788004632678184
-0.6735,1.4820665055216524,1.4788004632678184
-0.6732499999999999,1.4820665055216524,1.4784677920588032
-0.673,1.4820665055216524,1.4784677920588032
-0.67275,1.4820665055216524,1.4784677920588032
-0.6725000000000001,1.4820665055216524,1.4781351208497882
-0.67225,1.4820665055216524,1.477802449640773
-0.6719999999999999,1.4817278277995516,1.478135120849788
-0.6717500000000001,1.4817278277995516,1.477802449640773
-0.6715,1.4817278277995516,1.4778024496407727
-0.6712499999999999,1.4817278277995516,1.4774697784317576
-0.671,1.481389150077451,1.4774697784317576
-0.67075,1.4813891500774508,1.4774697784317576
-0.6705000000000001,1.4813891500774508,1.4771371072227426
-0.67025,1.4810504723553501,1.4771371072227424
-0.6699999999999999,1.48105047235535,1.4771371072227424
-0.6697500000000001,1.48105047235535,1.4768044360137274
-0.6695,1.480711794633249,1.4771371072227424
-0.6692499999999999,1.480711794633249,1.4768044360137271
-0.669,1.4803731169111485,1.4768044360137271
-0.66875,1.4803731169111483,1.4768044360137271
-0.6685000000000001,1.4803731169111483,1.4768044360137271
-0.66825,1.4800344391890476,1.4768044360137271
-0.6679999999999999,1.4800344391890474,1.4768044360137271
-0.6677500000000001,1.4800344391890474,1.4768044360137271
-0.6675,1.4796957614669466,1.4764717648047119
-0.6672499999999999,1.4796957614669466,1.4768044360137271
-0.667,1.4796957614669466,1.4768044360137271
-0.66675,1.4796957614669466,1.4771371072227424
-0.6665000000000001,1.4796957614669466,1.4768044360137274
-0.66625,1.4796957614669466,1.4768044360137271
-0.6659999999999999,1.4796957614669466,1.4768044360137271
-0.6657500000000001,1.4796957614669466,1.4768044360137271
-0.6655,1.4796957614669466,1.4768044360137271
-0.6652499999999999,1.4796957614669466,1.4768044360137271
-0.665,1.4796957614669466,1.4768044360137271
-0.66475,1.4796957614669466,1.4768044360137271
-0.6645000000000001,1.4800344391890472,1.4771371072227422
-0.66425,1.4800344391890474,1.4771371072227424
-0.6639999999999999,1.4800344391890474,1.4771371072227424
-0.6637500000000001,1.4800344391890474,1.4771371072227424
-0.6635,1.4800344391890474,1.4774697784317576
-0.6632499999999999,1.4800344391890474,1.4774697784317576
-0.663,1.4800344391890474,1.4778024496407725
-0.66275,1.4800344391890474,1.4774697784317576
-0.6625000000000001,1.4800344391890474,1.4778024496407725
-0.66225,1.480373116911148,1.4781351208497877
-0.6619999999999999,1.480711794633249,1.478135120849788
-0.6617500000000001,1.480711794633249,1.478467792058803
-0.6615,1.48105047235535,1.4784677920588032
-0.6612499999999999,1.48105047235535,1.4784677920588032
-0.661,1.48105047235535,1.4784677920588032
-0.66075,1.4813891500774508,1.4788004632678184
-0.6605000000000001,1.4813891500774508,1.4788004632678184
-0.66025,1.4813891500774508,1.4788004632678184
-0.6599999999999999,1.4813891500774508,1.4791331344768337
-0.6597500000000001,1.4817278277995514,1.4791331344768337
-0.6595,1.4817278277995516,1.479465805685849
-0.6592499999999999,1.4817278277995516,1.4797984768948642
-0.659,1.4817278277995516,1.4794658056858492
-0.65875,1.4817278277995516,1.479465805685849
-0.6585000000000001,1.4820665055216522,1.479465805685849
-0.65825,1.4820665055216524,1.479465805685849
-0.6579999999999999,1.4820665055216524,1.4797984768948642
-0.6577500000000001,1.482405183243753,1.4797984768948642
-0.6575,1.4824051832437533,1.479465805685849
-0.6572499999999999,1.4824051832437533,1.479465805685849
-0.657,1.4824051832437533,1.479465805685849
-0.65675,1.4824051832437533,1.479465805685849
-0.6565000000000001,1.4827438609658539,1.479465805685849
-0.65625,1.482743860965854,1.479465805685849
-0.6559999999999999,1.482743860965854,1.479465805685849
-0.65575,1.4830825386879547,1.479465805685849
-0.6555,1.483082538687955,1.479465805685849
-0.6552499999999999,1.483082538687955,1.4791331344768337
-0.655,1.483082538687955,1.4791331344768337
-0.6547499999999999,1.483082538687955,1.4791331344768337
-0.6545000000000001,1.483082538687955,1.4788004632678187
-0.65425,1.483082538687955,1.4788004632678184
-0.6539999999999999,1.483082538687955,1.4788004632678184
-0.65375,1.483082538687955,1.4784677920588034
-0.6535,1.483082538687955,1.4784677920588032
-0.6532499999999999,1.483082538687955,1.4784677920588032
-0.653,1.483082538687955,1.4784677920588032
-0.6527499999999999,1.483082538687955,1.478135120849788
-0.6525000000000001,1.483082538687955,1.478135120849788
-0.65225,1.483082538687955,1.4778024496407727
-0.6519999999999999,1.482743860965854,1.4778024496407727
-0.65175,1.482743860965854,1.4778024496407727
-0.6515,1.482743860965854,1.4774697784317576
-0.6512499999999999,1.4824051832437533,1.4774697784317576
-0.651,1.4824051832437533,1.4771371072227426
-0.6507499999999999,1.4820665055216524,1.4771371072227424
-0.6505000000000001,1.4820665055216524,1.4771371072227424
-0.65025,1.4820665055216524,1.4768044360137271
-0.6499999999999999,1.4820665055216524,1.4768044360137271
-0.64975,1.4820665055216524,1.4768044360137271
-0.6495,1.4817278277995516,1.4768044360137271
-0.6492500000000001,1.4817278277995516,1.4768044360137271
-0.649,1.4817278277995516,1.476471764804712
-0.6487499999999999,1.4817278277995516,1.4768044360137271
-0.6485000000000001,1.481389150077451,1.476471764804712
-0.64825,1.4817278277995516,1.4764717648047119
-0.6479999999999999,1.4813891500774508,1.4764717648047119
-0.64775,1.4813891500774508,1.4764717648047119
-0.6475,1.4817278277995516,1.4764717648047119
-0.6472500000000001,1.481389150077451,1.4764717648047119
-0.647,1.4810504723553501,1.4764717648047119
-0.6467499999999999,1.48105047235535,1.4764717648047119
-0.6465000000000001,1.48105047235535,1.4764717648047119
-0.64625,1.48105047235535,1.4768044360137271
-0.6459999999999999,1.480711794633249,1.4764717648047119
-0.64575,1.480711794633249,1.476804436013727
-0.6455,1.480711794633249,1.4768044360137271
-0.6452500000000001,1.4803731169111485,1.4768044360137271
-0.645,1.4803731169111483,1.4768044360137271
-0.6447499999999999,1.4803731169111483,1.4771371072227424
-0.6445000000000001,1.4803731169111483,1.4771371072227424
-0.64425,1.4803731169111483,1.4771371072227424
-0.6439999999999999,1.4803731169111483,1.4771371072227424
-0.64375,1.4807117946332489,1.4774697784317574
-0.6435,1.4803731169111483,1.4774697784317576
-0.6432500000000001,1.4803731169111483,1.4774697784317576
-0.643,1.4803731169111483,1.4778024496407725
-0.6427499999999999,1.4803731169111483,1.4778024496407727
-0.6425000000000001,1.4803731169111483,1.4778024496407727
-0.64225,1.4803731169111483,1.478135120849788
-0.6419999999999999,1.4803731169111483,1.478135120849788
-0.64175,1.4803731169111483,1.478135120849788
-0.6415,1.480711794633249,1.4784677920588032
-0.6412500000000001,1.480711794633249,1.4784677920588032
-0.641,1.480711794633249,1.4784677920588032
-0.6407499999999999,1.480711794633249,1.4784677920588032
-0.6405000000000001,1.4810504723553497,1.4788004632678182
-0.64025,1.48105047235535,1.4788004632678184
-0.6399999999999999,1.48105047235535,1.4791331344768337
-0.63975,1.48105047235535,1.4794658056858487
-0.6395,1.4813891500774508,1.4791331344768337
-0.6392500000000001,1.4813891500774508,1.4794658056858487
-0.639,1.4813891500774508,1.479133134476834
-0.6387499999999999,1.48105047235535,1.479465805685849
-0.6385000000000001,1.4813891500774505,1.479465805685849
-0.63825,1.4817278277995516,1.479465805685849
-0.6379999999999999,1.4817278277995516,1.479465805685849
-0.63775,1.4817278277995516,1.479798476894864
-0.6375,1.4817278277995516,1.4797984768948642
-0.6372500000000001,1.4817278277995516,1.4794658056858492
-0.637,1.4817278277995516,1.479798476894864
-0.6367499999999999,1.4817278277995516,1.479465805685849
-0.6365000000000001,1.4817278277995516,1.479465805685849
-0.63625,1.4817278277995516,1.479465805685849
-0.6359999999999999,1.4820665055216524,1.479465805685849
-0.63575,1.4817278277995518,1.479465805685849
-0.6355,1.4817278277995516,1.479465805685849
-0.6352500000000001,1.4817278277995516,1.479465805685849
-0.635,1.4817278277995516,1.479133134476834
-0.6347499999999999,1.4817278277995516,1.4791331344768337
-0.6345000000000001,1.4820665055216522,1.4791331344768337
-0.63425,1.4817278277995516,1.4788004632678184
-0.6339999999999999,1.4817278277995516,1.4788004632678184
-0.63375,1.4817278277995516,1.4788004632678184
-0.6335,1.4813891500774508,1.4784677920588032
-0.6332500000000001,1.4813891500774508,1.4784677920588032
-0.633,1.4813891500774508,1.4784677920588032
-0.6327499999999999,1.4813891500774508,1.4784677920588032
-0.6325000000000001,1.4813891500774508,1.4781351208497882
-0.63225,1.4813891500774508,1.4778024496407727
-0.6319999999999999,1.4813891500774508,1.4778024496407727
-0.63175,1.4813891500774508,1.4778024496407727
-0.6315,1.4813891500774508,1.4778024496407727
-0.6312500000000001,1.4813891500774508,1.4774697784317579
-0.631,1.4813891500774508,1.4774697784317576
-0.6307499999999999,1.48105047235535,1.4774697784317576
-0.6305000000000001,1.48105047235535,1.4774697784317576
-0.63025,1.48105047235535,1.4771371072227424
-0.6299999999999999,1.480711794633249,1.4771371072227424
-0.62975,1.480711794633249,1.4771371072227424
-0.6295,1.4803731169111483,1.4771371072227424
-0.6292500000000001,1.4803731169111483,1.4768044360137274
-0.629,1.4800344391890476,1.4768044360137271
-0.6287499999999999,1.4796957614669466,1.4768044360137271
-0.6285000000000001,1.4796957614669466,1.4768044360137271
-0.62825,1.4793570837448458,1.4768044360137271
-0.6279999999999999,1.4793570837448458,1.4768044360137271
-0.62775,1.4790184060227451,1.4768044360137271
-0.6275,1.479018406022745,1.4768044360137271
-0.6272500000000001,1.4786797283006443,1.4768044360137271
-0.627,1.478679728300644,1.4771371072227422
-0.6267499999999999,1.478679728300644,1.4768044360137271
-0.6265000000000001,1.478679728300644,1.4768044360137271
-0.62625,1.478679728300644,1.4771371072227424
-0.6259999999999999,1.478679728300644,1.4771371072227424
-0.62575,1.478679728300644,1.4768044360137274
-0.6255,1.478679728300644,1.4771371072227424
-0.6252500000000001,1.478679728300644,1.4771371072227424
-0.625,1.478679728300644,1.4771371072227424
-0.6247499999999999,1.478679728300644,1.4771371072227424
-0.6245,1.478679728300644,1.4774697784317574
-0.62425,1.478679728300644,1.4774697784317576
-0.6239999999999999,1.478679728300644,1.4774697784317576
-0.62375,1.4783410505785435,1.4774697784317576
-0.6234999999999999,1.4783410505785433,1.4778024496407727
-0.6232500000000001,1.4780023728564426,1.4774697784317579
-0.623,1.4780023728564424,1.4778024496407725
-0.6227499999999999,1.4780023728564424,1.4778024496407727
-0.6225,1.4780023728564424,1.4778024496407727
-0.62225,1.4780023728564424,1.478135120849788
-0.6219999999999999,1.4776636951343416,1.478135120849788
-0.62175,1.4780023728564422,1.478467792058803
-0.6214999999999999,1.4780023728564424,1.4784677920588032
-0.6212500000000001,1.4780023728564424,1.4788004632678182
-0.621,1.4780023728564424,1.4788004632678184
-0.6207499999999999,1.4780023728564424,1.4788004632678184
-0.6205,1.4780023728564424,1.4788004632678184
-0.62025,1.4783410505785433,1.4791331344768337
-0.6199999999999999,1.478679728300644,1.4791331344768337
-0.61975,1.478679728300644,1.4794658056858487
-0.6194999999999999,1.479018406022745,1.479465805685849
-0.6192500000000001,1.479018406022745,1.479465805685849
-0.619,1.479018406022745,1.479465805685849
-0.6187499999999999,1.4793570837448458,1.479465805685849
-0.6185,1.4793570837448458,1.479465805685849
-0.61825,1.4793570837448458,1.479465805685849
-0.6180000000000001,1.4796957614669464,1.479798476894864
-0.61775,1.4796957614669466,1.4794658056858492
-0.6174999999999999,1.4796957614669466,1.4797984768948642
-0.6172500000000001,1.4800344391890472,1.4794658056858492
-0.617,1.4800344391890474,1.479465805685849
-0.6167499999999999,1.4800344391890474,1.479465805685849
-0.6165,1.4800344391890474,1.479465805685849
-0.61625,1.4803731169111483,1.479465805685849
-0.6160000000000001,1.4803731169111483,1.479133134476834
-0.61575,1.4807117946332489,1.4791331344768337
-0.6154999999999999,1.480711794633249,1.4791331344768337
-0.6152500000000001,1.480711794633249,1.4791331344768337
-0.615,1.48105047235535,1.4791331344768337
-0.6147499999999999,1.48105047235535,1.4788004632678184
-0.6145,1.48105047235535,1.4788004632678184
-0.61425,1.48105047235535,1.4788004632678184
-0.6140000000000001,1.48105047235535,1.4788004632678184
-0.61375,1.4813891500774505,1.4788004632678184
-0.6134999999999999,1.4813891500774508,1.4784677920588032
-0.6132500000000001,1.4813891500774508,1.4784677920588032
-0.613,1.4813891500774508,1.478135120849788
-0.6127499999999999,1.4813891500774508,1.478135120849788
-0.6125,1.4813891500774508,1.478135120849788
-0.61225,1.4813891500774508,1.4778024496407727
-0.6120000000000001,1.4813891500774508,1.4774697784317579
-0.61175,1.4813891500774508,1.4778024496407725
-0.6114999999999999,1.4817278277995516,1.4774697784317576
-0.6112500000000001,1.4817278277995516,1.4771371072227426
-0.611,1.4817278277995516,1.4771371072227424
-0.6107499999999999,1.4817278277995516,1.4768044360137271
-0.6105,1.4817278277995516,1.4768044360137271
-0.61025,1.4813891500774508,1.4771371072227424
-0.6100000000000001,1.4813891500774508,1.4768044360137274
-0.60975,1.4813891500774508,1.4768044360137271
-0.6094999999999999,1.4813891500774508,1.4768044360137271
-0.6092500000000001,1.4813891500774508,1.4768044360137271
-0.609,1.48105047235535,1.4768044360137271
-0.6087499999999999,1.480711794633249,1.4764717648047119
-0.6085,1.4810504723553497,1.4764717648047119
-0.60825,1.480711794633249,1.4764717648047119
-0.6080000000000001,1.4803731169111485,1.4764717648047119
-0.60775,1.4803731169111483,1.4761390935956968
-0.6074999999999999,1.4800344391890474,1.4764717648047119
-0.6072500000000001,1.4796957614669468,1.4764717648047119
-0.607,1.4800344391890474,1.4761390935956966
-0.6067499999999999,1.4796957614669466,1.4761390935956966
-0.6065,1.479357083744846,1.4764717648047117
-0.60625,1.4793570837448458,1.4764717648047119
-0.6060000000000001,1.4793570837448458,1.4764717648047119
-0.60575,1.4790184060227451,1.4764717648047119
-0.6054999999999999,1.4793570837448458,1.4764717648047119
-0.6052500000000001,1.4790184060227451,1.4764717648047119
-0.605,1.479018406022745,1.4764717648047119
-0.6047499999999999,1.479018406022745,1.4768044360137271
-0.6045,1.479018406022745,1.4768044360137271
-0.60425,1.479018406022745,1.4771371072227424
-0.6040000000000001,1.4786797283006443,1.4771371072227424
-0.60375,1.478679728300644,1.4771371072227424
-0.6034999999999999,1.478679728300644,1.4774697784317576
-0.6032500000000001,1.4790184060227447,1.4774697784317576
-0.603,1.478679728300644,1.4778024496407727
-0.6027499999999999,1.478679728300644,1.4778024496407727
-0.6025,1.478679728300644,1.4781351208497877
-0.60225,1.478679728300644,1.478135120849788
-0.6020000000000001,1.478679728300644,1.478135120849788
-0.60175,1.478679728300644,1.478135120849788
-0.6014999999999999,1.478679728300644,1.4784677920588032
-0.6012500000000001,1.4790184060227447,1.4784677920588032
-0.601,1.479018406022745,1.4788004632678184
-0.6007499999999999,1.479018406022745,1.4788004632678184
-0.6005,1.479018406022745,1.4788004632678184
-0.60025,1.4793570837448458,1.4791331344768337
-0.6000000000000001,1.4793570837448458,1.4791331344768337
-0.59975,1.4793570837448458,1.4791331344768337
-0.5994999999999999,1.4793570837448458,1.4791331344768337
-0.5992500000000001,1.4793570837448458,1.4791331344768337
-0.599,1.4796957614669466,1.479465805685849
-0.5987499999999999,1.4796957614669466,1.479465805685849
-0.5985,1.4796957614669466,1.479133134476834
-0.59825,1.4796957614669466,1.479465805685849
-0.5980000000000001,1.4800344391890472,1.479465805685849
-0.59775,1.4800344391890474,1.479465805685849
-0.5974999999999999,1.4796957614669466,1.479465805685849
-0.5972500000000001,1.4800344391890472,1.479798476894864
-0.597,1.4800344391890474,1.479465805685849
-0.5967499999999999,1.4800344391890474,1.479465805685849
-0.5965,1.4800344391890474,1.479465805685849
-0.59625,1.4800344391890474,1.479465805685849
-0.5960000000000001,1.4800344391890474,1.479465805685849
-0.59575,1.480373116911148,1.479465805685849
-0.5954999999999999,1.4800344391890474,1.479465805685849
-0.5952500000000001,1.4800344391890474,1.479133134476834
-0.595,1.4800344391890474,1.4791331344768337
-0.5947499999999999,1.4800344391890474,1.4788004632678184
-0.5945,1.4800344391890474,1.4788004632678184
-0.59425,1.4796957614669466,1.4788004632678184
-0.5940000000000001,1.4796957614669466,1.4784677920588034
-0.59375,1.4796957614669466,1.4784677920588032
-0.5934999999999999,1.4796957614669466,1.4784677920588032
-0.59325,1.479357083744846,1.4784677920588032
-0.593,1.4796957614669466,1.478135120849788
-0.5927499999999999,1.4793570837448458,1.478135120849788
-0.5925,1.4790184060227451,1.478135120849788
-0.5922499999999999,1.479018406022745,1.4778024496407727
-0.5920000000000001,1.4786797283006443,1.4778024496407727
-0.59175,1.478679728300644,1.4774697784317579
-0.5914999999999999,1.478679728300644,1.4774697784317576
-0.59125,1.4783410505785435,1.4774697784317576
-0.591,1.4783410505785433,1.4771371072227424
-0.5907499999999999,1.4783410505785433,1.4771371072227424
-0.5905,1.4780023728564426,1.4771371072227424
-0.5902499999999999,1.4780023728564424,1.4768044360137271
-0.5900000000000001,1.4780023728564424,1.4768044360137271
-0.58975,1.4776636951343416,1.4768044360137271
-0.5894999999999999,1.4776636951343416,1.4764717648047119
-0.58925,1.4776636951343416,1.4764717648047119
-0.589,1.4776636951343416,1.4764717648047119
-0.5887499999999999,1.4776636951343416,1.4764717648047119
-0.5885,1.4780023728564422,1.4764717648047119
-0.5882499999999999,1.4776636951343416,1.4764717648047119
-0.5880000000000001,1.4776636951343416,1.4764717648047119
-0.58775,1.4776636951343416,1.4764717648047119
