Data/Data2/merve/merve3-d 07-23 16.37.44.csv

#Digilent WaveForms Oscilloscope Acquisition
#Device Name: Discovery2
#Serial Number: SN:210321A35B9C
#Date Time: 2022-07-23 16:37:44.132
#Sample rate: 1600Hz
#Samples: 8000
#Trigger: Source: Channel 1 Type: Edge Condition: Rising Level: 1.47 V Hyst.: Auto HoldOff: 100 ns
#Channel 1: Range: 20 mV/div Offset: -1.5 V Attenuation: 1 X Sample Mode: Average
#Channel 2: Range: 20 mV/div Offset: -1.5 V Attenuation: 1 X Sample Mode: Average

Time (s),Channel 1 (V),Channel 2 (V)
0.7406250000000001,1.5014603686431343,1.477586229076876
0.74125,1.5014603686431343,1.477586229076876
0.7418750000000003,1.5011216909210334,1.4779189002858915
0.7425000000000002,1.5011216909210334,1.4785842427039217
0.743125,1.5007830131989326,1.478916913912937
0.7437499999999999,1.500444335476832,1.479249585121952
0.7443750000000002,1.500105657754731,1.4795822563309675
0.7450000000000001,1.500105657754731,1.4799149275399828
0.745625,1.49976698003263,1.480247598748998
0.7462500000000003,1.49976698003263,1.4805802699580135
0.7468750000000002,1.49976698003263,1.4809129411670285
0.7475,1.49976698003263,1.4812456123760438
0.7481249999999999,1.4994283023105295,1.4812456123760438
0.7487500000000002,1.4994283023105295,1.4815782835850588
0.7493750000000001,1.49976698003263,1.4815782835850588
0.75,1.49976698003263,1.4812456123760438
0.7506249999999999,1.49976698003263,1.4812456123760438
0.7512500000000002,1.49976698003263,1.4809129411670285
0.7518750000000001,1.49976698003263,1.4805802699580133
0.7525,1.49976698003263,1.480247598748998
0.7531250000000003,1.500105657754731,1.4799149275399825
0.7537500000000001,1.500105657754731,1.4795822563309675
0.754375,1.5004443354768318,1.4792495851219523
0.7549999999999999,1.5004443354768318,1.4789169139129372
0.7556250000000002,1.5007830131989326,1.4785842427039217
0.7562500000000001,1.5007830131989326,1.4782515714949065
0.756875,1.5007830131989326,1.4779189002858912
0.7575000000000003,1.5007830131989328,1.4779189002858912
0.7581250000000002,1.5011216909210334,1.4779189002858912
0.75875,1.5011216909210334,1.477586229076876
0.7593749999999999,1.5011216909210334,1.477918900285891
0.7600000000000002,1.5011216909210334,1.4779189002858912
0.7606250000000001,1.5011216909210334,1.4782515714949065
0.76125,1.5007830131989326,1.4782515714949065
0.7618750000000003,1.5007830131989326,1.478584242703922
0.7625000000000002,1.5007830131989326,1.4792495851219523
0.763125,1.5004443354768318,1.4792495851219523
0.7637499999999999,1.5004443354768318,1.4799149275399825
0.7643750000000002,1.500105657754731,1.479914927539983
0.7650000000000001,1.500105657754731,1.480247598748998
0.765625,1.49976698003263,1.4805802699580133
0.7662499999999999,1.4994283023105295,1.4805802699580133
0.7668750000000002,1.4990896245884284,1.4809129411670285
0.7675000000000001,1.4987509468663276,1.4809129411670285
0.768125,1.4984122691442268,1.4809129411670285
0.7687500000000003,1.4984122691442268,1.4809129411670288
0.7693750000000001,1.4984122691442268,1.4812456123760438
0.77,1.498073591422126,1.4809129411670285
0.7706249999999999,1.4977349137000253,1.4805802699580135
0.7712500000000002,1.497734913700025,1.480247598748998
0.7718750000000001,1.497734913700025,1.4799149275399828
0.7725,1.498073591422126,1.4792495851219523
0.7731250000000003,1.4984122691442268,1.479249585121952
0.7737500000000002,1.4984122691442268,1.478916913912937
0.774375,1.4987509468663276,1.4785842427039217
0.7749999999999999,1.4990896245884282,1.4785842427039217
0.7756250000000002,1.4994283023105293,1.4782515714949065
0.7762500000000001,1.4994283023105293,1.4779189002858912
0.776875,1.49976698003263,1.4779189002858912
0.7775000000000003,1.500105657754731,1.477918900285891
0.7781250000000002,1.500105657754731,1.477586229076876
0.77875,1.5004443354768318,1.477586229076876
0.7793749999999999,1.5001056577547311,1.477586229076876
0.7800000000000002,1.5004443354768318,1.4779189002858912
0.7806250000000001,1.5004443354768318,1.4779189002858912
0.78125,1.5004443354768318,1.4785842427039217
0.7818749999999999,1.5004443354768318,1.4789169139129368
0.7825000000000002,1.5004443354768318,1.4792495851219523
0.7831250000000001,1.500105657754731,1.4795822563309675
0.78375,1.500105657754731,1.4799149275399828
0.7843750000000003,1.5001056577547307,1.4802475987489983
0.7850000000000001,1.49976698003263,1.4805802699580133
0.785625,1.49976698003263,1.4809129411670285
0.7862499999999999,1.4994283023105295,1.4812456123760436
0.7868750000000002,1.4994283023105293,1.4815782835850588
0.7875000000000001,1.4994283023105293,1.481910954794074
0.788125,1.4990896245884284,1.481910954794074
0.7887500000000003,1.4990896245884284,1.4822436260030893
0.7893750000000002,1.4990896245884284,1.4822436260030893
0.79,1.4990896245884284,1.481910954794074
0.7906249999999999,1.4990896245884284,1.481578283585059
0.7912500000000002,1.4990896245884284,1.4815782835850588
0.7918750000000001,1.4990896245884284,1.4812456123760438
0.7925,1.4994283023105293,1.4809129411670285
0.7931250000000003,1.4994283023105295,1.480580269958013
0.7937500000000002,1.49976698003263,1.480247598748998
0.794375,1.49976698003263,1.4799149275399828
0.7949999999999999,1.5001056577547307,1.4795822563309677
0.7956250000000002,1.500105657754731,1.479249585121952
0.7962500000000001,1.500105657754731,1.478916913912937
0.796875,1.500105657754731,1.4785842427039217
0.7974999999999999,1.500105657754731,1.4782515714949067
0.7981250000000002,1.500105657754731,1.4782515714949065
0.7987500000000001,1.5004443354768318,1.4782515714949065
0.799375,1.5004443354768318,1.4782515714949065
0.8000000000000003,1.5004443354768315,1.4785842427039217
0.8006250000000001,1.500105657754731,1.4785842427039217
0.80125,1.500105657754731,1.478916913912937
0.8018749999999999,1.500105657754731,1.479249585121952
0.8025000000000002,1.49976698003263,1.4795822563309675
0.8031250000000001,1.49976698003263,1.4799149275399828
0.80375,1.4994283023105293,1.480247598748998
0.8043750000000003,1.4990896245884284,1.4809129411670288
0.8050000000000002,1.4990896245884284,1.4812456123760438
0.805625,1.4987509468663276,1.4815782835850588
0.8062499999999999,1.4987509468663276,1.4819109547940739
0.8068750000000002,1.4987509468663276,1.481910954794074
0.8075000000000001,1.4984122691442268,1.4822436260030893
0.808125,1.4984122691442268,1.4822436260030893
0.8087500000000003,1.498073591422126,1.4825762972121046
0.8093750000000002,1.498073591422126,1.4825762972121046
0.81,1.498073591422126,1.4822436260030893
0.8106249999999999,1.498073591422126,1.4822436260030893
0.8112500000000002,1.498073591422126,1.4819109547940739
0.8118750000000001,1.498073591422126,1.4815782835850588
0.8125,1.4984122691442268,1.4812456123760438
0.8131249999999999,1.4984122691442268,1.4809129411670288
0.8137500000000002,1.4987509468663276,1.4805802699580133
0.8143750000000001,1.4987509468663276,1.480247598748998
0.815,1.4987509468663276,1.4799149275399828
0.8156250000000003,1.4987509468663278,1.479249585121952
0.8162500000000001,1.4990896245884284,1.478916913912937
0.816875,1.4987509468663276,1.4785842427039217
0.8174999999999999,1.4990896245884282,1.4785842427039217
0.8181250000000002,1.4987509468663276,1.4782515714949065
0.8187500000000001,1.4987509468663276,1.4782515714949065
0.819375,1.4987509468663276,1.4782515714949065
0.8200000000000003,1.4984122691442268,1.4782515714949065
0.8206250000000002,1.4984122691442268,1.4782515714949065
0.82125,1.498073591422126,1.4785842427039217
0.8218749999999999,1.498073591422126,1.4785842427039217
0.8225000000000002,1.497734913700025,1.4792495851219523
0.8231250000000001,1.497734913700025,1.4795822563309675
0.82375,1.4970575582558234,1.4799149275399828
0.8243750000000003,1.4967188805337224,1.4802475987489983
0.8250000000000002,1.4963802028116218,1.4805802699580133
0.825625,1.4963802028116218,1.4809129411670285
0.8262499999999999,1.4963802028116218,1.4812456123760436
0.8268750000000002,1.4963802028116215,1.481578283585059
0.8275000000000001,1.496041525089521,1.481910954794074
0.828125,1.496041525089521,1.481910954794074
0.8287499999999999,1.4963802028116215,1.4822436260030891
0.8293750000000002,1.4967188805337226,1.4822436260030893
0.8300000000000001,1.4967188805337226,1.4822436260030893
0.830625,1.4967188805337226,1.481910954794074
0.8312500000000003,1.4970575582558234,1.4815782835850586
0.8318750000000001,1.4970575582558234,1.4812456123760438
0.8325,1.4973962359779243,1.4809129411670285
0.8331249999999999,1.4977349137000249,1.4809129411670285
0.8337500000000002,1.497734913700025,1.4805802699580133
0.8343750000000001,1.498073591422126,1.4799149275399828
0.835,1.4984122691442268,1.4795822563309675
0.8356250000000003,1.4984122691442268,1.4792495851219523
0.8362500000000002,1.4984122691442268,1.4792495851219523
0.836875,1.4987509468663276,1.478916913912937
0.8374999999999999,1.4987509468663276,1.478584242703922
0.8381250000000002,1.4987509468663276,1.4785842427039217
0.8387500000000001,1.4987509468663276,1.4782515714949065
0.839375,1.4990896245884284,1.4782515714949065
0.8400000000000003,1.4990896245884282,1.4785842427039217
0.8406250000000002,1.4987509468663276,1.4785842427039217
0.84125,1.4987509468663276,1.478916913912937
0.8418749999999999,1.4987509468663276,1.479249585121952
0.8425000000000002,1.4984122691442268,1.4795822563309677
0.8431250000000001,1.4984122691442268,1.480247598748998
0.84375,1.4984122691442268,1.4805802699580133
0.8443749999999999,1.4980735914221261,1.4809129411670283
0.8450000000000002,1.498073591422126,1.4812456123760438
0.8456250000000001,1.497734913700025,1.4815782835850588
0.84625,1.497734913700025,1.481910954794074
0.8468750000000003,1.497734913700025,1.4822436260030893
0.8475000000000001,1.497734913700025,1.4822436260030893
0.848125,1.4973962359779243,1.4825762972121046
0.8487499999999999,1.4973962359779243,1.4825762972121046
0.8493750000000002,1.4973962359779243,1.4825762972121046
0.8500000000000001,1.4973962359779243,1.4822436260030893
0.850625,1.4973962359779243,1.4822436260030893
0.8512500000000003,1.4973962359779243,1.4819109547940739
0.8518750000000002,1.4973962359779243,1.4815782835850588
0.8525,1.497734913700025,1.4812456123760438
0.8531249999999999,1.497734913700025,1.4809129411670288
0.8537500000000002,1.497734913700025,1.4805802699580133
0.8543750000000001,1.498073591422126,1.480247598748998
0.855,1.498073591422126,1.4795822563309675
0.8556250000000003,1.498073591422126,1.4792495851219523
0.8562500000000002,1.498073591422126,1.4792495851219523
0.856875,1.4984122691442268,1.478916913912937
0.8574999999999999,1.4984122691442268,1.478916913912937
0.8581250000000002,1.4987509468663276,1.4785842427039217
0.8587500000000001,1.4987509468663276,1.4785842427039217
0.859375,1.4987509468663276,1.4785842427039217
0.8599999999999999,1.498412269144227,1.4785842427039217
0.8606250000000002,1.4987509468663276,1.4785842427039217
0.8612500000000001,1.4984122691442268,1.478916913912937
0.861875,1.4984122691442268,1.4792495851219523
0.8625000000000003,1.498073591422126,1.4799149275399828
0.8631250000000001,1.498073591422126,1.4799149275399828
0.86375,1.497734913700025,1.480247598748998
0.8643749999999999,1.4973962359779245,1.480580269958013
0.8650000000000002,1.4970575582558234,1.4809129411670285
0.8656250000000001,1.4970575582558234,1.4812456123760438
0.86625,1.4967188805337226,1.4815782835850588
0.8668750000000003,1.4967188805337224,1.481578283585059
0.8675000000000002,1.4963802028116218,1.481910954794074
0.868125,1.4963802028116218,1.481910954794074
0.8687499999999999,1.4963802028116218,1.481910954794074
0.8693750000000002,1.496041525089521,1.481910954794074
0.8700000000000001,1.496041525089521,1.4815782835850588
0.870625,1.496041525089521,1.4815782835850588
0.8712500000000003,1.4963802028116218,1.4812456123760436
0.8718750000000002,1.4963802028116218,1.4805802699580133
0.8725,1.4963802028116218,1.480247598748998
0.8731249999999999,1.4963802028116218,1.479914927539983
0.8737500000000002,1.496380202811622,1.479249585121952
0.8743750000000001,1.4967188805337226,1.478916913912937
0.875,1.4963802028116218,1.4782515714949065
0.8756249999999999,1.4963802028116218,1.4779189002858915
0.8762500000000002,1.496041525089521,1.477586229076876
0.8768750000000001,1.496041525089521,1.4772535578678607
0.8775,1.49570284736742,1.4769208866588455
0.8781250000000003,1.4957028473674199,1.4769208866588455
0.8787500000000001,1.4953641696453195,1.4769208866588455
0.879375,1.4953641696453195,1.4769208866588455
0.8799999999999999,1.4957028473674199,1.4772535578678605
0.8806250000000002,1.496041525089521,1.4772535578678607
0.8812500000000001,1.4963802028116218,1.477586229076876
0.881875,1.4963802028116218,1.4779189002858912
0.8825000000000003,1.4963802028116218,1.478584242703922
0.8831250000000002,1.4963802028116218,1.478916913912937
0.88375,1.4963802028116218,1.4792495851219523
0.8843749999999999,1.4963802028116218,1.4799149275399825
0.8850000000000002,1.496041525089521,1.480247598748998
0.8856250000000001,1.49570284736742,1.4805802699580133
0.88625,1.4953641696453195,1.4809129411670285
0.8868750000000003,1.4953641696453193,1.4809129411670288
0.8875000000000002,1.4950254919232187,1.4812456123760438
0.888125,1.4953641696453195,1.4812456123760438
0.8887499999999999,1.4957028473674199,1.4815782835850586
0.8893750000000002,1.49570284736742,1.4815782835850586
0.8900000000000001,1.49570284736742,1.4812456123760438
0.890625,1.49570284736742,1.4812456123760438
0.8912499999999999,1.49570284736742,1.4812456123760438
0.8918750000000002,1.49570284736742,1.4805802699580133
0.8925000000000001,1.496041525089521,1.480247598748998
0.893125,1.496041525089521,1.4799149275399828
0.8937500000000003,1.4963802028116218,1.4795822563309673
0.8943750000000001,1.4963802028116218,1.4792495851219523
0.895,1.4967188805337226,1.478916913912937
0.8956249999999999,1.4967188805337226,1.4782515714949067
0.8962500000000002,1.4967188805337226,1.4782515714949065
0.8968750000000001,1.4970575582558234,1.4779189002858912
0.8975,1.4970575582558234,1.477586229076876
0.8981250000000003,1.4970575582558234,1.477586229076876
0.8987500000000002,1.4970575582558234,1.477586229076876
0.899375,1.4970575582558234,1.477586229076876
0.8999999999999999,1.497396235977924,1.477918900285891
0.9006250000000002,1.4973962359779243,1.4779189002858912
0.9012500000000001,1.4970575582558234,1.4782515714949065
0.901875,1.4970575582558234,1.4785842427039217
0.9025000000000003,1.4970575582558232,1.4789169139129372
0.9031250000000002,1.4967188805337226,1.4792495851219523
0.90375,1.4963802028116218,1.4795822563309675
0.9043749999999999,1.4963802028116218,1.4802475987489978
0.9050000000000002,1.496041525089521,1.4805802699580135
0.9056250000000001,1.496041525089521,1.4812456123760438
0.90625,1.49570284736742,1.4812456123760438
0.9068749999999999,1.4953641696453197,1.4815782835850586
0.9075000000000002,1.4953641696453195,1.481910954794074
0.9081250000000001,1.4953641696453195,1.481910954794074
0.90875,1.4953641696453195,1.4822436260030893
0.9093750000000003,1.4950254919232187,1.4822436260030893
0.9100000000000001,1.4950254919232187,1.4822436260030893
0.910625,1.4953641696453195,1.481910954794074
0.9112499999999999,1.4950254919232189,1.481910954794074
0.9118750000000002,1.4953641696453195,1.4815782835850588
0.9125000000000001,1.4953641696453195,1.4812456123760438
0.913125,1.49570284736742,1.4809129411670285
0.9137500000000003,1.49570284736742,1.480580269958013
0.9143750000000002,1.49570284736742,1.4799149275399828
0.915,1.49570284736742,1.4795822563309675
0.9156249999999999,1.4960415250895207,1.4795822563309675
0.9162500000000002,1.496041525089521,1.4792495851219523
0.9168750000000001,1.496041525089521,1.478916913912937
0.9175,1.496041525089521,1.478916913912937
0.9181250000000003,1.4960415250895212,1.478916913912937
0.9187500000000002,1.4963802028116218,1.478916913912937
0.919375,1.496041525089521,1.4785842427039217
0.9199999999999999,1.496041525089521,1.4789169139129368
0.9206250000000002,1.49570284736742,1.4789169139129372
0.9212500000000001,1.49570284736742,1.4792495851219523
0.921875,1.4953641696453195,1.4795822563309675
0.9224999999999999,1.4953641696453195,1.4799149275399825
0.9231250000000002,1.4950254919232187,1.480247598748998
0.9237500000000001,1.4950254919232187,1.4809129411670285
0.924375,1.4946868142011178,1.4812456123760438
0.9250000000000003,1.494348136479017,1.481578283585059
0.9256250000000001,1.494348136479017,1.481910954794074
0.92625,1.4940094587569162,1.4822436260030893
0.9268749999999999,1.4940094587569162,1.4822436260030893
0.9275000000000002,1.4936707810348153,1.4825762972121046
0.9281250000000001,1.4933321033127145,1.4825762972121046
0.92875,1.4933321033127145,1.4825762972121046
0.9293750000000003,1.4929934255906137,1.4825762972121046
0.9300000000000002,1.4929934255906137,1.4825762972121046
0.930625,1.4929934255906137,1.4822436260030893
0.9312499999999999,1.492654747868513,1.4819109547940743
0.9318750000000002,1.4929934255906137,1.4815782835850588
0.9325000000000001,1.4929934255906137,1.4812456123760438
0.933125,1.4933321033127145,1.4805802699580133
0.9337500000000003,1.4936707810348153,1.480580269958013
0.9343750000000002,1.4936707810348153,1.4799149275399828
0.935,1.4936707810348153,1.4795822563309675
0.9356249999999999,1.494009458756916,1.4792495851219525
0.9362500000000002,1.494348136479017,1.479249585121952
0.9368750000000001,1.494348136479017,1.478916913912937
0.9375,1.4946868142011178,1.4785842427039217
0.9381249999999999,1.4946868142011178,1.4785842427039217
0.9387500000000002,1.4946868142011178,1.4782515714949065
0.9393750000000001,1.4950254919232187,1.4785842427039217
0.94,1.4946868142011178,1.4785842427039217
0.9406250000000003,1.4950254919232184,1.478916913912937
0.9412500000000001,1.4946868142011178,1.478916913912937
0.941875,1.4946868142011178,1.4795822563309675
0.9424999999999999,1.4946868142011178,1.4799149275399825
0.9431250000000002,1.494348136479017,1.480247598748998
0.9437500000000001,1.494348136479017,1.4805802699580133
0.944375,1.494348136479017,1.4812456123760438
0.9450000000000003,1.4943481364790168,1.481578283585059
0.9456250000000002,1.4940094587569162,1.481910954794074
0.94625,1.4940094587569162,1.4822436260030893
0.9468749999999999,1.4940094587569162,1.4825762972121044
0.9475000000000002,1.4936707810348153,1.4829089684211199
0.9481250000000001,1.4936707810348153,1.4829089684211199
0.94875,1.4936707810348153,1.4832416396301351
0.9493750000000003,1.4933321033127145,1.4829089684211199
0.9500000000000002,1.4933321033127145,1.4829089684211199
0.950625,1.4936707810348153,1.4829089684211199
0.9512499999999999,1.4936707810348153,1.4825762972121048
0.9518750000000002,1.4936707810348153,1.4822436260030891
0.9525000000000001,1.4936707810348153,1.481910954794074
0.953125,1.4940094587569162,1.4815782835850588
0.9537499999999999,1.4940094587569162,1.4809129411670288
0.9543750000000002,1.4940094587569162,1.4805802699580133
0.9550000000000001,1.494348136479017,1.480247598748998
0.955625,1.494348136479017,1.4795822563309675
0.9562500000000003,1.494348136479017,1.4795822563309673
0.9568750000000001,1.494348136479017,1.4792495851219523
0.9575,1.4946868142011178,1.478916913912937
0.9581249999999999,1.4946868142011178,1.478916913912937
0.9587500000000002,1.4946868142011178,1.478916913912937
0.9593750000000001,1.4946868142011178,1.478916913912937
0.96,1.4946868142011178,1.478916913912937
0.9606250000000003,1.494348136479017,1.4789169139129372
0.9612500000000002,1.494348136479017,1.4792495851219523
0.961875,1.494348136479017,1.4795822563309675
0.9624999999999999,1.4940094587569164,1.4799149275399825
0.9631250000000002,1.4940094587569162,1.480247598748998
0.9637500000000001,1.4940094587569162,1.4805802699580133
0.964375,1.4940094587569162,1.4809129411670285
0.9650000000000003,1.4936707810348153,1.481245612376044
0.9656250000000002,1.4936707810348153,1.4815782835850588
0.96625,1.4933321033127145,1.481910954794074
0.9668749999999999,1.4933321033127145,1.4822436260030891
0.9675000000000002,1.4933321033127143,1.4825762972121046
0.9681250000000001,1.4929934255906137,1.4825762972121046
0.96875,1.4929934255906137,1.4825762972121046
