Data/datamustafa/mustafa2-c 07-25 14.27.33.csv

#Digilent WaveForms Oscilloscope Acquisition
#Device Name: Discovery2
#Serial Number: SN:210321A35B9C
#Date Time: 2022-07-25 14:27:33.470
#Sample rate: 4000Hz
#Samples: 8000
#Trigger: Source: Channel 1 Type: Edge Condition: Rising Level: 1.47 V Hyst.: Auto HoldOff: 100 ns
#Channel 1: Range: 20 mV/div Offset: -1.48 V Attenuation: 1 X Sample Mode: Average
#Channel 2: Range: 20 mV/div Offset: -1.5 V Attenuation: 1 X Sample Mode: Average

Time (s),Channel 1 (V),Channel 2 (V)
0,1.4735995624691318,1.4765882154498302
0.00024999999999997247,1.4735995624691318,1.4765882154498302
0.0004999999999999449,1.4735995624691318,1.4769208866588455
0.0007500000000000284,1.4739382401912327,1.4765882154498302
0.0010000000000000009,1.4739382401912327,1.4769208866588455
0.0012499999999999734,1.4739382401912327,1.4769208866588455
0.0014999999999999458,1.4742769179133335,1.4769208866588455
0.0017500000000000293,1.4746155956354343,1.4772535578678607
0.0020000000000000018,1.4746155956354343,1.4772535578678607
0.0022499999999999742,1.4749542733575352,1.4772535578678607
0.0024999999999999467,1.4749542733575352,1.4772535578678607
0.00275000000000003,1.4749542733575352,1.477586229076876
0.0030000000000000027,1.4749542733575352,1.477586229076876
0.003249999999999975,1.475292951079636,1.477586229076876
0.0034999999999999476,1.475292951079636,1.477586229076876
0.003750000000000031,1.475292951079636,1.4779189002858912
0.0040000000000000036,1.4756316288017368,1.4779189002858912
0.004249999999999976,1.4759703065238376,1.4779189002858912
0.0044999999999999485,1.4759703065238376,1.4779189002858912
0.004750000000000032,1.4763089842459383,1.4782515714949065
0.0050000000000000044,1.4763089842459383,1.4782515714949065
0.005249999999999977,1.4763089842459383,1.4779189002858912
0.005499999999999949,1.4763089842459383,1.4782515714949065
0.005750000000000033,1.476647661968039,1.4782515714949065
0.006000000000000005,1.47698633969014,1.4785842427039217
0.006249999999999978,1.4773250174122408,1.4785842427039217
0.00649999999999995,1.4773250174122408,1.4782515714949065
0.006750000000000034,1.4776636951343416,1.4785842427039217
0.007000000000000006,1.4776636951343416,1.4785842427039217
0.007249999999999979,1.4780023728564424,1.4785842427039217
0.007499999999999951,1.4780023728564424,1.4785842427039217
0.007750000000000035,1.4780023728564424,1.4785842427039217
0.008000000000000007,1.4780023728564424,1.478916913912937
0.00824999999999998,1.4780023728564424,1.4785842427039217
0.008499999999999952,1.4780023728564424,1.478916913912937
0.008750000000000036,1.4783410505785433,1.478916913912937
0.009000000000000008,1.4783410505785433,1.478916913912937
0.00924999999999998,1.4780023728564424,1.478916913912937
0.009499999999999953,1.4780023728564424,1.478916913912937
0.009750000000000036,1.4776636951343416,1.478916913912937
0.010000000000000009,1.4776636951343416,1.478916913912937
0.010249999999999981,1.4773250174122408,1.478916913912937
0.010499999999999954,1.47698633969014,1.478916913912937
0.010750000000000037,1.476647661968039,1.478916913912937
0.01100000000000001,1.476647661968039,1.478916913912937
0.011249999999999982,1.476647661968039,1.478916913912937
0.011499999999999955,1.4763089842459383,1.478916913912937
0.011750000000000038,1.4763089842459383,1.4785842427039217
0.01200000000000001,1.4759703065238376,1.4785842427039217
0.012249999999999983,1.4756316288017368,1.4785842427039217
0.012499999999999956,1.475292951079636,1.4785842427039217
0.012750000000000039,1.4749542733575352,1.4782515714949065
0.013000000000000012,1.4749542733575352,1.4782515714949065
0.013249999999999984,1.4746155956354343,1.4782515714949065
0.013499999999999956,1.4746155956354343,1.4782515714949065
0.01375000000000004,1.4742769179133335,1.4782515714949065
0.014000000000000012,1.4742769179133335,1.4779189002858912
0.014249999999999985,1.4739382401912327,1.4779189002858912
0.014499999999999957,1.4739382401912327,1.4779189002858912
0.01475000000000004,1.4735995624691318,1.477586229076876
0.015000000000000013,1.4735995624691318,1.477586229076876
0.015249999999999986,1.4735995624691318,1.477586229076876
0.015499999999999958,1.4735995624691318,1.477586229076876
0.015750000000000042,1.473260884747031,1.477586229076876
0.016000000000000014,1.473260884747031,1.477586229076876
0.016249999999999987,1.473260884747031,1.4772535578678607
0.01649999999999996,1.4729222070249302,1.4772535578678607
0.016750000000000043,1.4729222070249302,1.4769208866588455
0.017000000000000015,1.4729222070249302,1.4769208866588455
0.017249999999999988,1.4729222070249302,1.4772535578678607
0.01749999999999996,1.4725835293028293,1.4769208866588455
0.017750000000000044,1.4722448515807285,1.4769208866588455
0.018000000000000016,1.4725835293028293,1.4769208866588455
0.01824999999999999,1.4722448515807285,1.4769208866588455
0.01849999999999996,1.4725835293028293,1.4769208866588455
0.018750000000000044,1.4722448515807285,1.4769208866588455
0.019000000000000017,1.4722448515807285,1.4769208866588455
0.01924999999999999,1.4722448515807285,1.4769208866588455
0.019499999999999962,1.4722448515807285,1.4769208866588455
0.019750000000000045,1.4722448515807285,1.4769208866588455
0.020000000000000018,1.4722448515807285,1.4769208866588455
0.02024999999999999,1.4722448515807285,1.4769208866588455
0.020499999999999963,1.4722448515807285,1.4765882154498302
0.020750000000000046,1.4722448515807285,1.4769208866588455
0.02100000000000002,1.4722448515807285,1.4769208866588455
0.02124999999999999,1.4725835293028293,1.4769208866588455
0.021499999999999964,1.4725835293028293,1.4769208866588455
0.021750000000000047,1.4725835293028293,1.4772535578678607
0.02200000000000002,1.4729222070249302,1.4772535578678607
0.022249999999999992,1.4729222070249302,1.4772535578678607
0.022499999999999964,1.4729222070249302,1.4772535578678607
0.022750000000000048,1.4729222070249302,1.4772535578678607
0.02300000000000002,1.473260884747031,1.477586229076876
0.023249999999999993,1.4735995624691318,1.477586229076876
0.023499999999999965,1.4735995624691318,1.4772535578678607
0.02375000000000005,1.4735995624691318,1.477586229076876
0.02400000000000002,1.4735995624691318,1.477586229076876
0.024249999999999994,1.4739382401912327,1.4779189002858912
0.024499999999999966,1.4739382401912327,1.4779189002858912
0.02475000000000005,1.4739382401912327,1.4779189002858912
0.025000000000000022,1.4742769179133335,1.4779189002858912
0.025249999999999995,1.4742769179133335,1.4779189002858912
0.025499999999999967,1.4746155956354343,1.4779189002858912
0.02575000000000005,1.4746155956354343,1.4782515714949065
0.026000000000000023,1.4746155956354343,1.4782515714949065
0.026249999999999996,1.4749542733575352,1.4782515714949065
0.026499999999999968,1.4749542733575352,1.4782515714949065
0.02675000000000005,1.4749542733575352,1.4782515714949065
0.027000000000000024,1.4749542733575352,1.4782515714949065
0.027249999999999996,1.475292951079636,1.4785842427039217
0.02749999999999997,1.475292951079636,1.4785842427039217
0.027750000000000052,1.475292951079636,1.4785842427039217
0.028000000000000025,1.475292951079636,1.4785842427039217
0.028249999999999997,1.4756316288017368,1.4785842427039217
0.02849999999999997,1.475292951079636,1.4785842427039217
0.028750000000000053,1.4756316288017368,1.478916913912937
0.029000000000000026,1.4756316288017368,1.4785842427039217
0.029249999999999998,1.475292951079636,1.4785842427039217
0.02949999999999997,1.4756316288017368,1.478916913912937
0.029750000000000054,1.475292951079636,1.478916913912937
0.030000000000000027,1.475292951079636,1.478916913912937
0.03025,1.475292951079636,1.478916913912937
0.03049999999999997,1.4749542733575352,1.478916913912937
0.030750000000000055,1.4749542733575352,1.478916913912937
0.031000000000000028,1.4749542733575352,1.4785842427039217
0.03125,1.4749542733575352,1.4785842427039217
0.03149999999999997,1.4749542733575352,1.4785842427039217
0.031749999999999945,1.4746155956354343,1.4785842427039217
0.03200000000000003,1.4742769179133335,1.4782515714949065
0.03225,1.4742769179133335,1.4782515714949065
0.03249999999999997,1.4742769179133335,1.4782515714949065
0.032749999999999946,1.4739382401912327,1.4782515714949065
0.03300000000000003,1.4739382401912327,1.4782515714949065
0.03325,1.4739382401912327,1.4782515714949065
0.033499999999999974,1.4735995624691318,1.4779189002858912
0.03374999999999995,1.4735995624691318,1.4779189002858912
0.03400000000000003,1.4735995624691318,1.4779189002858912
0.03425,1.4735995624691318,1.477586229076876
0.034499999999999975,1.473260884747031,1.477586229076876
0.03474999999999995,1.473260884747031,1.477586229076876
0.03500000000000003,1.473260884747031,1.4772535578678607
0.035250000000000004,1.4729222070249302,1.477586229076876
0.035499999999999976,1.4729222070249302,1.4772535578678607
0.03574999999999995,1.4729222070249302,1.4772535578678607
0.03600000000000003,1.4725835293028293,1.4769208866588455
0.036250000000000004,1.4725835293028293,1.4769208866588455
0.03649999999999998,1.4722448515807285,1.4769208866588455
0.03674999999999995,1.4719061738586277,1.4769208866588455
0.03700000000000003,1.4719061738586277,1.4765882154498302
0.037250000000000005,1.4715674961365268,1.4765882154498302
0.03749999999999998,1.4719061738586277,1.4765882154498302
0.03774999999999995,1.4719061738586277,1.476255544240815
0.038000000000000034,1.4719061738586277,1.476255544240815
0.038250000000000006,1.4719061738586277,1.4765882154498302
0.03849999999999998,1.4719061738586277,1.4765882154498302
0.03874999999999995,1.4719061738586277,1.476255544240815
0.039000000000000035,1.4719061738586277,1.476255544240815
0.03925000000000001,1.4719061738586277,1.4765882154498302
0.03949999999999998,1.4722448515807285,1.476255544240815
0.03974999999999995,1.4722448515807285,1.4765882154498302
0.040000000000000036,1.4719061738586277,1.4765882154498302
0.04025000000000001,1.4719061738586277,1.4765882154498302
0.04049999999999998,1.4719061738586277,1.4765882154498302
0.04074999999999995,1.4719061738586277,1.4765882154498302
0.041000000000000036,1.4722448515807285,1.4769208866588455
0.04125000000000001,1.4722448515807285,1.4769208866588455
0.04149999999999998,1.4722448515807285,1.4769208866588455
0.041749999999999954,1.4722448515807285,1.4769208866588455
0.04200000000000004,1.4722448515807285,1.4769208866588455
0.04225000000000001,1.4722448515807285,1.4772535578678607
0.04249999999999998,1.4722448515807285,1.4772535578678607
0.042749999999999955,1.4722448515807285,1.4772535578678607
0.04300000000000004,1.4725835293028293,1.477586229076876
0.04325000000000001,1.4725835293028293,1.477586229076876
0.04349999999999998,1.4729222070249302,1.477586229076876
0.043749999999999956,1.4729222070249302,1.477586229076876
0.04400000000000004,1.473260884747031,1.4779189002858912
0.04425000000000001,1.473260884747031,1.4779189002858912
0.044499999999999984,1.4735995624691318,1.4779189002858912
0.044749999999999956,1.4735995624691318,1.4779189002858912
0.04500000000000004,1.4739382401912327,1.4779189002858912
0.04525000000000001,1.4742769179133335,1.4779189002858912
0.045499999999999985,1.4742769179133335,1.4779189002858912
0.04574999999999996,1.4742769179133335,1.4782515714949065
0.04600000000000004,1.4746155956354343,1.4785842427039217
0.04625000000000001,1.4746155956354343,1.4785842427039217
0.046499999999999986,1.4746155956354343,1.4785842427039217
0.04674999999999996,1.4749542733575352,1.4785842427039217
0.04700000000000004,1.4749542733575352,1.4785842427039217
0.047250000000000014,1.4749542733575352,1.478916913912937
0.04749999999999999,1.4749542733575352,1.478916913912937
0.04774999999999996,1.475292951079636,1.478916913912937
0.04800000000000004,1.475292951079636,1.478916913912937
0.048250000000000015,1.475292951079636,1.478916913912937
0.04849999999999999,1.4756316288017368,1.478916913912937
0.04874999999999996,1.475292951079636,1.478916913912937
0.049000000000000044,1.4756316288017368,1.478916913912937
0.049250000000000016,1.4756316288017368,1.478916913912937
0.04949999999999999,1.4756316288017368,1.478916913912937
0.04974999999999996,1.4756316288017368,1.478916913912937
0.050000000000000044,1.4756316288017368,1.478916913912937
0.05025000000000002,1.4756316288017368,1.478916913912937
0.05049999999999999,1.4756316288017368,1.478916913912937
0.05074999999999996,1.4756316288017368,1.4785842427039217
0.051000000000000045,1.4756316288017368,1.478916913912937
0.05125000000000002,1.475292951079636,1.4785842427039217
0.05149999999999999,1.475292951079636,1.4785842427039217
0.05174999999999996,1.475292951079636,1.4785842427039217
0.052000000000000046,1.4749542733575352,1.4785842427039217
0.05225000000000002,1.475292951079636,1.4782515714949065
0.05249999999999999,1.4749542733575352,1.4782515714949065
0.052749999999999964,1.4749542733575352,1.4782515714949065
0.05300000000000005,1.4749542733575352,1.4782515714949065
0.05325000000000002,1.4746155956354343,1.4782515714949065
0.05349999999999999,1.4742769179133335,1.4779189002858912
0.053749999999999964,1.4742769179133335,1.4779189002858912
0.05400000000000005,1.4742769179133335,1.4779189002858912
0.05425000000000002,1.4739382401912327,1.477586229076876
0.05449999999999999,1.4739382401912327,1.477586229076876
0.054749999999999965,1.4739382401912327,1.477586229076876
0.05500000000000005,1.4735995624691318,1.4772535578678607
0.05525000000000002,1.473260884747031,1.4772535578678607
0.055499999999999994,1.4735995624691318,1.477586229076876
0.055749999999999966,1.473260884747031,1.4772535578678607
0.05600000000000005,1.473260884747031,1.4769208866588455
0.05625000000000002,1.4729222070249302,1.4769208866588455
0.056499999999999995,1.4729222070249302,1.4765882154498302
0.05674999999999997,1.4729222070249302,1.4765882154498302
0.05700000000000005,1.4725835293028293,1.4765882154498302
0.05725000000000002,1.4725835293028293,1.4765882154498302
0.057499999999999996,1.4725835293028293,1.4765882154498302
0.05774999999999997,1.4725835293028293,1.476255544240815
0.05800000000000005,1.4725835293028293,1.476255544240815
0.058250000000000024,1.4722448515807285,1.476255544240815
0.058499999999999996,1.4722448515807285,1.4765882154498302
0.05874999999999997,1.4722448515807285,1.476255544240815
0.05900000000000005,1.4722448515807285,1.476255544240815
0.059250000000000025,1.4722448515807285,1.476255544240815
0.0595,1.4725835293028293,1.476255544240815
0.05974999999999997,1.4725835293028293,1.476255544240815
0.06000000000000005,1.4722448515807285,1.476255544240815
0.060250000000000026,1.4722448515807285,1.476255544240815
0.0605,1.4725835293028293,1.476255544240815
0.06074999999999997,1.4725835293028293,1.476255544240815
0.061000000000000054,1.4725835293028293,1.4765882154498302
0.06125000000000003,1.4725835293028293,1.4765882154498302
0.0615,1.4725835293028293,1.4765882154498302
0.06174999999999997,1.4729222070249302,1.4765882154498302
0.062000000000000055,1.4729222070249302,1.4765882154498302
0.06225000000000003,1.4729222070249302,1.4765882154498302
0.0625,1.473260884747031,1.4765882154498302
0.06274999999999997,1.473260884747031,1.4769208866588455
0.06299999999999994,1.4735995624691318,1.4769208866588455
0.06325000000000003,1.4735995624691318,1.4769208866588455
0.0635,1.4735995624691318,1.4769208866588455
0.06374999999999997,1.4739382401912327,1.4772535578678607
0.06399999999999995,1.4739382401912327,1.4772535578678607
0.06425000000000003,1.4742769179133335,1.4772535578678607
0.0645,1.4742769179133335,1.4772535578678607
0.06474999999999997,1.4746155956354343,1.477586229076876
0.06499999999999995,1.4742769179133335,1.477586229076876
0.06525000000000003,1.4746155956354343,1.477586229076876
0.0655,1.4746155956354343,1.477586229076876
0.06574999999999998,1.4749542733575352,1.477586229076876
0.06599999999999995,1.4749542733575352,1.477586229076876
0.06625000000000003,1.4749542733575352,1.477586229076876
0.0665,1.4749542733575352,1.4779189002858912
0.06674999999999998,1.4749542733575352,1.4779189002858912
0.06699999999999995,1.475292951079636,1.4779189002858912
0.06725000000000003,1.4756316288017368,1.4779189002858912
0.0675,1.4756316288017368,1.4779189002858912
0.06774999999999998,1.4756316288017368,1.4779189002858912
0.06799999999999995,1.4756316288017368,1.4782515714949065
0.06825000000000003,1.4759703065238376,1.4782515714949065
0.0685,1.4759703065238376,1.4782515714949065
0.06874999999999998,1.4759703065238376,1.4785842427039217
0.06899999999999995,1.4759703065238376,1.4782515714949065
0.06925000000000003,1.4756316288017368,1.4782515714949065
0.0695,1.4756316288017368,1.4785842427039217
0.06974999999999998,1.4756316288017368,1.4785842427039217
0.06999999999999995,1.4756316288017368,1.4785842427039217
0.07025000000000003,1.475292951079636,1.4785842427039217
0.07050000000000001,1.475292951079636,1.4785842427039217
0.07074999999999998,1.475292951079636,1.4785842427039217
0.07099999999999995,1.475292951079636,1.4782515714949065
0.07125000000000004,1.475292951079636,1.4782515714949065
0.07150000000000001,1.475292951079636,1.4782515714949065
0.07174999999999998,1.4749542733575352,1.4782515714949065
0.07199999999999995,1.4746155956354343,1.4779189002858912
0.07225000000000004,1.4746155956354343,1.4782515714949065
0.07250000000000001,1.4746155956354343,1.4782515714949065
0.07274999999999998,1.4742769179133335,1.4779189002858912
0.07299999999999995,1.4742769179133335,1.477586229076876
0.07325000000000004,1.4739382401912327,1.477586229076876
0.07350000000000001,1.4739382401912327,1.477586229076876
0.07374999999999998,1.4739382401912327,1.477586229076876
0.07399999999999995,1.4735995624691318,1.477586229076876
0.07425000000000004,1.473260884747031,1.477586229076876
0.07450000000000001,1.473260884747031,1.4772535578678607
0.07474999999999998,1.473260884747031,1.4772535578678607
0.07499999999999996,1.4729222070249302,1.4772535578678607
0.07525000000000004,1.4729222070249302,1.4772535578678607
0.07550000000000001,1.4729222070249302,1.4769208866588455
0.07574999999999998,1.4729222070249302,1.4769208866588455
0.07599999999999996,1.4725835293028293,1.4765882154498302
0.07625000000000004,1.4725835293028293,1.4765882154498302
0.07650000000000001,1.4722448515807285,1.4765882154498302
0.07674999999999998,1.4722448515807285,1.4765882154498302
0.07699999999999996,1.4722448515807285,1.4765882154498302
0.07725000000000004,1.4722448515807285,1.476255544240815
0.07750000000000001,1.4719061738586277,1.476255544240815
0.07774999999999999,1.4722448515807285,1.476255544240815
0.07799999999999996,1.4719061738586277,1.476255544240815
0.07825000000000004,1.4719061738586277,1.4759228730318
0.07850000000000001,1.4719061738586277,1.4759228730318
0.07874999999999999,1.4719061738586277,1.4759228730318
0.07899999999999996,1.4719061738586277,1.4759228730318
0.07925000000000004,1.4719061738586277,1.476255544240815
0.07950000000000002,1.4722448515807285,1.4759228730318
0.07974999999999999,1.4719061738586277,1.4759228730318
0.07999999999999996,1.4722448515807285,1.4759228730318
0.08025000000000004,1.4722448515807285,1.4759228730318
0.08050000000000002,1.4722448515807285,1.476255544240815
0.08074999999999999,1.4722448515807285,1.476255544240815
0.08099999999999996,1.4722448515807285,1.476255544240815
0.08125000000000004,1.4722448515807285,1.476255544240815
0.08150000000000002,1.4722448515807285,1.476255544240815
0.08174999999999999,1.4725835293028293,1.476255544240815
0.08199999999999996,1.4725835293028293,1.4765882154498302
0.08225000000000005,1.4725835293028293,1.476255544240815
0.08250000000000002,1.4729222070249302,1.4765882154498302
0.08274999999999999,1.4729222070249302,1.4765882154498302
0.08299999999999996,1.4729222070249302,1.4765882154498302
0.08325000000000005,1.473260884747031,1.4769208866588455
0.08350000000000002,1.473260884747031,1.4769208866588455
0.08374999999999999,1.473260884747031,1.4772535578678607
0.08399999999999996,1.4735995624691318,1.4772535578678607
0.08425000000000005,1.4739382401912327,1.4772535578678607
0.08450000000000002,1.4739382401912327,1.477586229076876
0.08474999999999999,1.4739382401912327,1.477586229076876
0.08499999999999996,1.4739382401912327,1.477586229076876
