Data/Data2/cem/cem-f 07-23 17.46.24.csv

#Digilent WaveForms Oscilloscope Acquisition
#Device Name: Discovery2
#Serial Number: SN:210321A35B9C
#Date Time: 2022-07-23 17:46:24.457
#Sample rate: 1600Hz
#Samples: 8000
#Trigger: Source: Channel 1 Type: Edge Condition: Rising Level: 1.47 V Hyst.: Auto HoldOff: 100 ns
#Channel 1: Range: 20 mV/div Offset: -1.5 V Attenuation: 1 X Sample Mode: Average
#Channel 2: Range: 20 mV/div Offset: -1.5 V Attenuation: 1 X Sample Mode: Average

Time (s),Channel 1 (V),Channel 2 (V)
0.7406250000000001,1.4767368949297741,1.4689367776424798
0.74125,1.4767368949297741,1.4689367776424798
0.7418750000000003,1.4767368949297741,1.46893677764248
0.7425000000000002,1.4767368949297741,1.469269448851495
0.743125,1.477075572651875,1.469269448851495
0.7437499999999999,1.477075572651875,1.469269448851495
0.7443750000000002,1.4774142503739758,1.4689367776424798
0.7450000000000001,1.4777529280960766,1.469269448851495
0.745625,1.4784302835402783,1.4689367776424798
0.7462500000000003,1.4787689612623791,1.4689367776424798
0.7468750000000002,1.4787689612623791,1.4689367776424798
0.7475,1.4794463167065806,1.4689367776424798
0.7481249999999999,1.4797849944286812,1.4686041064334647
0.7487500000000002,1.4801236721507824,1.4686041064334645
0.7493750000000001,1.480462349872883,1.4686041064334645
0.75,1.480462349872883,1.4686041064334645
0.7506249999999999,1.4808010275949837,1.4686041064334645
0.7512500000000002,1.4808010275949839,1.4686041064334645
0.7518750000000001,1.4808010275949839,1.4689367776424798
0.7525,1.4808010275949839,1.4689367776424798
0.7531250000000003,1.4804623498728828,1.4689367776424798
0.7537500000000001,1.4801236721507822,1.4689367776424798
0.754375,1.4797849944286814,1.4689367776424798
0.7549999999999999,1.4791076389844802,1.4692694488514948
0.7556250000000002,1.4787689612623791,1.469269448851495
0.7562500000000001,1.4784302835402783,1.469269448851495
0.756875,1.4777529280960766,1.469269448851495
0.7575000000000003,1.4774142503739756,1.4692694488514952
0.7581250000000002,1.4767368949297741,1.4696021200605103
0.75875,1.4763982172076733,1.469269448851495
0.7593749999999999,1.4763982172076733,1.46960212006051
0.7600000000000002,1.4760595394855724,1.469269448851495
0.7606250000000001,1.4757208617634716,1.469269448851495
0.76125,1.4757208617634716,1.4696021200605103
0.7618750000000003,1.4757208617634718,1.46960212006051
0.7625000000000002,1.4760595394855724,1.469269448851495
0.763125,1.4763982172076733,1.469269448851495
0.7637499999999999,1.476736894929774,1.469269448851495
0.7643750000000002,1.4770755726518752,1.4689367776424798
0.7650000000000001,1.4774142503739758,1.4689367776424798
0.765625,1.4780916058181774,1.4689367776424798
0.7662499999999999,1.478430283540278,1.4689367776424798
0.7668750000000002,1.47910763898448,1.4689367776424798
0.7675000000000001,1.4794463167065806,1.4686041064334645
0.768125,1.4801236721507822,1.4686041064334645
0.7687500000000003,1.4804623498728833,1.4686041064334645
0.7693750000000001,1.4808010275949839,1.4686041064334645
0.77,1.4811397053170847,1.4686041064334645
0.7706249999999999,1.4814783830391853,1.4686041064334645
0.7712500000000002,1.4814783830391856,1.4686041064334645
0.7718750000000001,1.4814783830391856,1.4686041064334645
0.7725,1.4814783830391856,1.4686041064334645
0.7731250000000003,1.4811397053170845,1.4686041064334645
0.7737500000000002,1.4808010275949839,1.4686041064334645
0.774375,1.4801236721507822,1.4686041064334645
0.7749999999999999,1.4797849944286816,1.4686041064334645
0.7756250000000002,1.4794463167065806,1.4689367776424798
0.7762500000000001,1.47910763898448,1.4689367776424798
0.776875,1.4787689612623791,1.469269448851495
0.7775000000000003,1.478430283540278,1.469269448851495
0.7781250000000002,1.4777529280960766,1.469269448851495
0.77875,1.4774142503739758,1.469269448851495
0.7793749999999999,1.4770755726518752,1.469269448851495
0.7800000000000002,1.4770755726518747,1.4696021200605103
0.7806250000000001,1.4767368949297741,1.4696021200605103
0.78125,1.4767368949297741,1.4696021200605103
0.7818749999999999,1.4767368949297741,1.4696021200605103
0.7825000000000002,1.477075572651875,1.4696021200605103
0.7831250000000001,1.477075572651875,1.4696021200605103
0.78375,1.4774142503739758,1.4696021200605103
0.7843750000000003,1.4777529280960768,1.4692694488514952
0.7850000000000001,1.4784302835402783,1.4696021200605103
0.785625,1.4787689612623791,1.469269448851495
0.7862499999999999,1.4794463167065803,1.469269448851495
0.7868750000000002,1.4801236721507822,1.469269448851495
0.7875000000000001,1.480462349872883,1.4689367776424798
0.788125,1.4808010275949839,1.4689367776424798
0.7887500000000003,1.481139705317085,1.4689367776424795
0.7893750000000002,1.4814783830391856,1.4686041064334645
0.79,1.4814783830391856,1.4686041064334645
0.7906249999999999,1.4818170607612862,1.4686041064334645
0.7912500000000002,1.4818170607612864,1.4686041064334645
0.7918750000000001,1.4818170607612864,1.4686041064334645
0.7925,1.4814783830391856,1.4686041064334645
0.7931250000000003,1.4814783830391853,1.4686041064334645
0.7937500000000002,1.4811397053170847,1.4686041064334645
0.794375,1.4808010275949839,1.4686041064334645
0.7949999999999999,1.4804623498728833,1.4686041064334645
0.7956250000000002,1.4797849944286812,1.4689367776424798
0.7962500000000001,1.4794463167065806,1.4689367776424798
0.796875,1.4787689612623791,1.469269448851495
0.7974999999999999,1.4787689612623791,1.469269448851495
0.7981250000000002,1.4780916058181774,1.469269448851495
0.7987500000000001,1.4774142503739758,1.469269448851495
0.799375,1.4774142503739758,1.469269448851495
0.8000000000000003,1.4770755726518747,1.469269448851495
0.8006250000000001,1.4767368949297741,1.469269448851495
0.80125,1.4767368949297741,1.4696021200605103
0.8018749999999999,1.4767368949297741,1.4696021200605103
0.8025000000000002,1.477075572651875,1.4696021200605103
0.8031250000000001,1.4774142503739758,1.469269448851495
0.80375,1.4780916058181774,1.469269448851495
0.8043750000000003,1.4784302835402785,1.4692694488514948
0.8050000000000002,1.4787689612623791,1.4689367776424798
0.805625,1.4794463167065806,1.4689367776424798
0.8062499999999999,1.4797849944286812,1.4689367776424798
0.8068750000000002,1.480462349872883,1.4689367776424798
0.8075000000000001,1.480462349872883,1.4686041064334645
0.808125,1.4811397053170847,1.4686041064334645
0.8087500000000003,1.4814783830391856,1.4682714352244493
0.8093750000000002,1.4814783830391856,1.4682714352244493
0.81,1.4814783830391856,1.4682714352244493
0.8106249999999999,1.4818170607612862,1.4679387640154342
0.8112500000000002,1.4814783830391856,1.4682714352244493
0.8118750000000001,1.4814783830391856,1.4682714352244493
0.8125,1.4814783830391856,1.4682714352244493
0.8131249999999999,1.4814783830391856,1.4682714352244493
0.8137500000000002,1.4811397053170847,1.4682714352244493
0.8143750000000001,1.480462349872883,1.4682714352244493
0.815,1.4801236721507822,1.4686041064334645
0.8156250000000003,1.4794463167065803,1.4686041064334647
0.8162500000000001,1.4787689612623791,1.4689367776424798
0.816875,1.4780916058181774,1.4689367776424798
0.8174999999999999,1.477414250373976,1.4689367776424798
0.8181250000000002,1.477075572651875,1.469269448851495
0.8187500000000001,1.4767368949297741,1.469269448851495
0.819375,1.4760595394855724,1.469269448851495
0.8200000000000003,1.4760595394855722,1.4692694488514952
0.8206250000000002,1.4753821840413708,1.4696021200605103
0.82125,1.47504350631927,1.4696021200605103
0.8218749999999999,1.47504350631927,1.4696021200605103
0.8225000000000002,1.4753821840413708,1.4696021200605103
0.8231250000000001,1.4753821840413708,1.4696021200605103
0.82375,1.4757208617634716,1.4696021200605103
0.8243750000000003,1.4763982172076735,1.469269448851495
0.8250000000000002,1.4767368949297741,1.469269448851495
0.825625,1.477075572651875,1.469269448851495
0.8262499999999999,1.4777529280960764,1.46893677764248
0.8268750000000002,1.4784302835402787,1.4689367776424795
0.8275000000000001,1.4794463167065806,1.4686041064334645
0.828125,1.4797849944286814,1.4686041064334645
0.8287499999999999,1.480123672150782,1.4686041064334645
0.8293750000000002,1.4808010275949839,1.4686041064334645
0.8300000000000001,1.4808010275949839,1.4682714352244493
0.830625,1.4808010275949839,1.4682714352244493
0.8312500000000003,1.4808010275949839,1.4682714352244493
0.8318750000000001,1.4808010275949839,1.4682714352244493
0.8325,1.4808010275949839,1.4682714352244493
0.8331249999999999,1.4808010275949839,1.4682714352244493
0.8337500000000002,1.480462349872883,1.4682714352244493
0.8343750000000001,1.4801236721507822,1.4682714352244493
0.835,1.4797849944286814,1.4682714352244493
0.8356250000000003,1.4794463167065803,1.4686041064334647
0.8362500000000002,1.47910763898448,1.4689367776424798
0.836875,1.4787689612623791,1.4689367776424798
0.8374999999999999,1.4787689612623791,1.4689367776424798
0.8381250000000002,1.4780916058181774,1.4689367776424798
0.8387500000000001,1.4777529280960766,1.4689367776424798
0.839375,1.4774142503739758,1.469269448851495
0.8400000000000003,1.4774142503739758,1.469269448851495
0.8406250000000002,1.4774142503739758,1.469269448851495
0.84125,1.4777529280960766,1.469269448851495
0.8418749999999999,1.4777529280960766,1.469269448851495
0.8425000000000002,1.4780916058181774,1.4692694488514948
0.8431250000000001,1.4780916058181774,1.4689367776424798
0.84375,1.4784302835402783,1.4689367776424798
0.8443749999999999,1.478768961262379,1.4689367776424798
0.8450000000000002,1.4794463167065806,1.4689367776424798
0.8456250000000001,1.4797849944286814,1.4686041064334645
0.84625,1.480462349872883,1.4686041064334645
0.8468750000000003,1.480801027594984,1.4686041064334643
0.8475000000000001,1.4811397053170847,1.4682714352244493
0.848125,1.4814783830391856,1.4682714352244493
0.8487499999999999,1.4818170607612862,1.4682714352244493
0.8493750000000002,1.4821557384833872,1.467938764015434
0.8500000000000001,1.4821557384833872,1.467938764015434
0.850625,1.482494416205488,1.467938764015434
0.8512500000000003,1.4824944162054878,1.467938764015434
0.8518750000000002,1.4821557384833872,1.467938764015434
0.8525,1.4821557384833872,1.467938764015434
0.8531249999999999,1.4818170607612866,1.467938764015434
0.8537500000000002,1.4814783830391856,1.467938764015434
0.8543750000000001,1.4811397053170847,1.467938764015434
0.855,1.4808010275949839,1.467938764015434
0.8556250000000003,1.480123672150782,1.4682714352244493
0.8562500000000002,1.4797849944286814,1.4682714352244493
0.856875,1.4794463167065806,1.4686041064334645
0.8574999999999999,1.4787689612623793,1.4686041064334645
0.8581250000000002,1.478768961262379,1.4686041064334645
0.8587500000000001,1.4784302835402783,1.4686041064334645
0.859375,1.4780916058181774,1.4686041064334645
0.8599999999999999,1.4780916058181774,1.4686041064334645
0.8606250000000002,1.4780916058181774,1.4686041064334645
0.8612500000000001,1.4777529280960766,1.4686041064334645
0.861875,1.4780916058181774,1.4686041064334645
0.8625000000000003,1.4780916058181777,1.4686041064334645
0.8631250000000001,1.4784302835402783,1.4686041064334645
0.86375,1.4787689612623791,1.4682714352244493
0.8643749999999999,1.4791076389844797,1.4679387640154342
0.8650000000000002,1.4797849944286814,1.467938764015434
0.8656250000000001,1.4801236721507822,1.467938764015434
0.86625,1.480462349872883,1.4676060928064187
0.8668750000000003,1.480801027594984,1.4676060928064185
0.8675000000000002,1.4814783830391856,1.4672734215974035
0.868125,1.4818170607612864,1.4672734215974035
0.8687499999999999,1.482155738483387,1.4672734215974035
0.8693750000000002,1.482494416205488,1.4672734215974035
0.8700000000000001,1.482494416205488,1.4672734215974035
0.870625,1.4828330939275889,1.4672734215974035
0.8712500000000003,1.4828330939275889,1.4672734215974035
0.8718750000000002,1.4828330939275889,1.4672734215974035
0.8725,1.4828330939275889,1.4672734215974035
0.8731249999999999,1.4824944162054883,1.4672734215974035
0.8737500000000002,1.4818170607612862,1.4676060928064187
0.8743750000000001,1.4814783830391856,1.4676060928064187
0.875,1.4811397053170847,1.4676060928064187
0.8756249999999999,1.480801027594984,1.4676060928064187
0.8762500000000002,1.4801236721507822,1.467938764015434
0.8768750000000001,1.4797849944286814,1.467938764015434
0.8775,1.47910763898448,1.467938764015434
0.8781250000000003,1.4787689612623791,1.468271435224449
0.8787500000000001,1.4787689612623791,1.467938764015434
0.879375,1.4784302835402783,1.467938764015434
0.8799999999999999,1.4780916058181777,1.467938764015434
0.8806250000000002,1.4780916058181774,1.4682714352244493
0.8812500000000001,1.4780916058181774,1.4682714352244493
0.881875,1.4780916058181774,1.467938764015434
0.8825000000000003,1.4780916058181777,1.4682714352244493
0.8831250000000002,1.4784302835402783,1.4682714352244493
0.88375,1.4787689612623791,1.467938764015434
0.8843749999999999,1.4791076389844797,1.467938764015434
0.8850000000000002,1.4797849944286814,1.467938764015434
0.8856250000000001,1.4801236721507822,1.4676060928064187
0.88625,1.4808010275949839,1.4676060928064187
0.8868750000000003,1.481139705317085,1.4676060928064187
0.8875000000000002,1.4814783830391856,1.4676060928064187
0.888125,1.4814783830391856,1.4672734215974035
0.8887499999999999,1.4818170607612862,1.4672734215974035
0.8893750000000002,1.4821557384833872,1.4669407503883882
0.8900000000000001,1.4821557384833872,1.4669407503883882
0.890625,1.4818170607612864,1.466608079179373
0.8912499999999999,1.4818170607612864,1.466608079179373
0.8918750000000002,1.4818170607612864,1.466608079179373
0.8925000000000001,1.4814783830391856,1.466608079179373
0.893125,1.4811397053170847,1.466608079179373
0.8937500000000003,1.4808010275949837,1.466608079179373
0.8943750000000001,1.4801236721507822,1.466608079179373
0.895,1.4794463167065806,1.4662754079703577
0.8956249999999999,1.4791076389844802,1.4666080791793727
0.8962500000000002,1.4787689612623791,1.466608079179373
0.8968750000000001,1.4780916058181774,1.466608079179373
0.8975,1.4777529280960766,1.466608079179373
0.8981250000000003,1.4774142503739758,1.466608079179373
0.8987500000000002,1.4774142503739758,1.466608079179373
0.899375,1.4774142503739758,1.4669407503883882
0.8999999999999999,1.4774142503739758,1.4669407503883882
0.9006250000000002,1.4774142503739758,1.4669407503883882
0.9012500000000001,1.4774142503739758,1.4669407503883882
0.901875,1.4774142503739758,1.4669407503883882
0.9025000000000003,1.477414250373976,1.4669407503883882
0.9031250000000002,1.4777529280960766,1.4669407503883882
0.90375,1.4780916058181774,1.4669407503883882
0.9043749999999999,1.478430283540278,1.4666080791793732
0.9050000000000002,1.4784302835402785,1.466608079179373
0.9056250000000001,1.47910763898448,1.466608079179373
0.90625,1.47910763898448,1.4662754079703577
0.9068749999999999,1.4794463167065803,1.4659427367613427
0.9075000000000002,1.4794463167065806,1.4659427367613425
0.9081250000000001,1.4797849944286814,1.4659427367613425
0.90875,1.4801236721507822,1.4656100655523274
0.9093750000000003,1.4801236721507824,1.4656100655523276
0.9100000000000001,1.480462349872883,1.4659427367613425
0.910625,1.480462349872883,1.4656100655523274
0.9112499999999999,1.4801236721507824,1.4656100655523274
0.9118750000000002,1.4801236721507822,1.4656100655523274
0.9125000000000001,1.4797849944286814,1.4656100655523274
0.913125,1.4794463167065806,1.4656100655523274
0.9137500000000003,1.4791076389844797,1.4656100655523274
0.9143750000000002,1.4787689612623791,1.4656100655523274
0.915,1.4784302835402783,1.4656100655523274
0.9156249999999999,1.4780916058181777,1.4656100655523274
0.9162500000000002,1.4777529280960766,1.4656100655523274
0.9168750000000001,1.4774142503739758,1.4659427367613425
0.9175,1.477075572651875,1.4659427367613425
0.9181250000000003,1.476736894929774,1.4659427367613425
0.9187500000000002,1.4763982172076733,1.4659427367613425
0.919375,1.4763982172076733,1.4659427367613425
0.9199999999999999,1.4763982172076733,1.4662754079703575
0.9206250000000002,1.4760595394855724,1.4662754079703575
0.9212500000000001,1.4760595394855724,1.4659427367613425
0.921875,1.4763982172076733,1.4659427367613425
0.9224999999999999,1.476736894929774,1.4659427367613425
0.9231250000000002,1.477075572651875,1.4662754079703577
0.9237500000000001,1.4774142503739758,1.4662754079703577
0.924375,1.4780916058181774,1.4659427367613425
0.9250000000000003,1.4784302835402785,1.4659427367613425
0.9256250000000001,1.4787689612623791,1.4659427367613425
0.92625,1.47910763898448,1.4656100655523274
0.9268749999999999,1.4797849944286812,1.4652773943433124
0.9275000000000002,1.4801236721507822,1.4656100655523274
0.9281250000000001,1.480462349872883,1.4652773943433122
0.92875,1.4811397053170847,1.4652773943433122
0.9293750000000003,1.4814783830391856,1.465277394343312
0.9300000000000002,1.4814783830391856,1.464944723134297
0.930625,1.4814783830391856,1.464944723134297
0.9312499999999999,1.4814783830391856,1.465277394343312
0.9318750000000002,1.4814783830391856,1.464944723134297
0.9325000000000001,1.4814783830391856,1.464944723134297
0.933125,1.4811397053170847,1.464944723134297
0.9337500000000003,1.4808010275949837,1.4649447231342971
0.9343750000000002,1.480462349872883,1.4652773943433122
0.935,1.4801236721507822,1.4652773943433122
0.9356249999999999,1.4797849944286816,1.4652773943433122
0.9362500000000002,1.4791076389844797,1.4652773943433124
0.9368750000000001,1.4787689612623791,1.4656100655523274
0.9375,1.4784302835402783,1.4656100655523274
0.9381249999999999,1.4777529280960768,1.4656100655523274
0.9387500000000002,1.4774142503739758,1.4659427367613425
0.9393750000000001,1.477075572651875,1.4659427367613425
0.94,1.477075572651875,1.4659427367613425
0.9406250000000003,1.4767368949297741,1.4662754079703577
0.9412500000000001,1.4767368949297741,1.4662754079703577
0.941875,1.4767368949297741,1.4662754079703577
0.9424999999999999,1.4770755726518747,1.4662754079703577
0.9431250000000002,1.4774142503739758,1.4662754079703577
0.9437500000000001,1.4777529280960766,1.4659427367613425
0.944375,1.4780916058181774,1.4659427367613425
0.9450000000000003,1.4784302835402785,1.4659427367613425
0.9456250000000002,1.4787689612623791,1.4659427367613425
0.94625,1.4794463167065806,1.4656100655523274
0.9468749999999999,1.4797849944286812,1.4656100655523274
0.9475000000000002,1.4801236721507822,1.4656100655523274
0.9481250000000001,1.480462349872883,1.4656100655523274
0.94875,1.4808010275949839,1.4656100655523274
0.9493750000000003,1.4811397053170847,1.4656100655523272
0.9500000000000002,1.4811397053170847,1.4652773943433122
0.950625,1.4811397053170847,1.4652773943433122
0.9512499999999999,1.4814783830391853,1.4652773943433122
0.9518750000000002,1.4811397053170847,1.4652773943433122
0.9525000000000001,1.4811397053170847,1.4652773943433122
0.953125,1.4808010275949839,1.4652773943433122
0.9537499999999999,1.4804623498728833,1.4652773943433122
0.9543750000000002,1.4801236721507822,1.4656100655523274
0.9550000000000001,1.4797849944286814,1.4656100655523274
0.955625,1.47910763898448,1.4656100655523274
0.9562500000000003,1.478768961262379,1.4656100655523276
0.9568750000000001,1.4780916058181774,1.4659427367613425
0.9575,1.4777529280960766,1.4659427367613425
0.9581249999999999,1.4767368949297746,1.4659427367613425
0.9587500000000002,1.4763982172076733,1.4659427367613425
0.9593750000000001,1.4757208617634716,1.4659427367613425
0.96,1.4757208617634716,1.4659427367613425
0.9606250000000003,1.47504350631927,1.4659427367613425
0.9612500000000002,1.47504350631927,1.4659427367613425
0.961875,1.47504350631927,1.4659427367613425
0.9624999999999999,1.4747048285971693,1.4659427367613425
0.9631250000000002,1.47504350631927,1.4659427367613425
0.9637500000000001,1.4757208617634716,1.4659427367613425
0.964375,1.4760595394855724,1.4656100655523274
0.9650000000000003,1.4767368949297743,1.4656100655523274
0.9656250000000002,1.4774142503739758,1.4656100655523274
0.96625,1.4777529280960766,1.4656100655523274
0.9668749999999999,1.4780916058181772,1.4652773943433124
0.9675000000000002,1.4784302835402785,1.4652773943433122
0.9681250000000001,1.47910763898448,1.4652773943433122
